<svg width="24" height="19" viewBox="0 0 24 19" fill="none" xmlns="http://www.w3.org/2000/svg">
<path d="M23.2536 2.59587C22.9805 1.57462 22.1754 0.7695 21.1541 0.496375C19.3016 2.65427e-07 11.875 0 11.875 0C11.875 0 4.44838 2.65427e-07 2.59588 0.496375C1.57462 0.7695 0.7695 1.57462 0.496375 2.59587C0 4.44837 0 9.5 0 9.5C0 9.5 0 14.5516 0.496375 16.4041C0.7695 17.4254 1.57462 18.2305 2.59588 18.5036C4.44838 19 11.875 19 11.875 19C11.875 19 19.3016 19 21.1541 18.5036C22.1766 18.2305 22.9805 17.4254 23.2536 16.4041C23.75 14.5516 23.75 9.5 23.75 9.5C23.75 9.5 23.75 4.44837 23.2536 2.59587ZM9.5 12.5851V6.41488C9.5 5.95769 9.99519 5.67269 10.3906 5.90069L15.7344 8.98581C16.1298 9.21381 16.1298 9.78619 15.7344 10.0142L10.3906 13.0993C9.99519 13.3285 9.5 13.0423 9.5 12.5851Z" fill="white" fill-opacity="0.8"/>
</svg>
