<?xml version="1.0" standalone="no"?>
<!DOCTYPE svg PUBLIC "-//W3C//DTD SVG 20010904//EN"
 "http://www.w3.org/TR/2001/REC-SVG-20010904/DTD/svg10.dtd">
<svg version="1.0" xmlns="http://www.w3.org/2000/svg"
 width="4616.000000pt" height="3264.000000pt" viewBox="0 0 4616.000000 3264.000000"
 preserveAspectRatio="xMidYMid meet">

<g transform="translate(0.000000,3264.000000) scale(0.100000,-0.100000)"
fill="#000000" stroke="none">
<path d="M37995 30283 c-131 -9 -396 -48 -544 -79 -603 -129 -1136 -383 -1631
-778 -155 -124 -467 -434 -583 -580 -312 -392 -526 -783 -678 -1238 -294 -880
-254 -1881 110 -2747 358 -851 1028 -1564 1860 -1980 904 -453 1981 -532 2951
-219 1162 375 2097 1294 2491 2448 89 259 142 487 181 772 20 142 23 206 22
503 0 359 -11 492 -65 760 -254 1269 -1117 2328 -2314 2840 -345 148 -762 251
-1169 290 -143 13 -486 18 -631 8z m725 -87 c894 -115 1651 -483 2270 -1105
652 -654 1031 -1473 1111 -2400 15 -174 6 -625 -16 -781 -65 -474 -181 -853
-379 -1250 -500 -997 -1424 -1737 -2501 -2004 -721 -178 -1475 -146 -2176 93
-446 152 -859 386 -1234 699 -49 42 -160 146 -245 231 -552 554 -913 1243
-1054 2013 -81 437 -83 913 -6 1348 143 812 515 1514 1106 2090 660 643 1484
1013 2419 1084 119 9 586 -3 705 -18z"/>
<path d="M38095 30013 c-544 -32 -1000 -154 -1465 -389 -765 -387 -1380 -1046
-1708 -1829 -192 -457 -282 -911 -282 -1417 0 -990 386 -1906 1095 -2596 604
-589 1331 -928 2184 -1018 184 -20 648 -14 815 10 461 67 801 172 1185 366
353 178 642 389 931 679 543 545 890 1225 1014 1986 31 193 40 318 40 575 0
278 -8 384 -50 630 -165 969 -737 1845 -1564 2397 -381 254 -806 434 -1245
528 -297 64 -673 95 -950 78z m580 -89 c563 -61 1117 -265 1595 -588 263 -177
592 -481 783 -720 295 -371 516 -792 640 -1221 201 -693 194 -1421 -20 -2090
-40 -127 -131 -363 -142 -369 -4 -3 -171 49 -371 114 l-364 118 -162 469 c-89
257 -224 646 -299 863 -75 217 -175 505 -222 640 -47 135 -96 259 -109 276
-31 42 -99 74 -155 74 -52 0 -291 -73 -331 -101 -34 -24 -63 -98 -53 -136 3
-15 67 -201 141 -413 74 -211 134 -389 134 -395 0 -6 -35 -18 -77 -27 -43 -10
-222 -49 -397 -87 -176 -39 -327 -71 -336 -71 -22 0 -188 450 -300 811 -21 70
-49 149 -61 175 -36 77 -130 164 -229 212 -83 41 -218 82 -272 82 -16 0 -28 2
-28 6 0 3 17 31 39 62 21 31 53 86 71 122 22 45 53 84 100 127 81 75 127 143
136 203 4 25 15 55 25 68 31 40 60 132 66 211 13 185 -88 510 -219 704 -187
276 -524 454 -788 417 -96 -13 -217 -71 -286 -137 -39 -37 -66 -53 -122 -71
-174 -56 -290 -187 -331 -375 -17 -77 -23 -201 -13 -278 10 -76 9 -78 -23
-143 -65 -127 -55 -240 30 -334 l45 -50 -41 -28 c-62 -43 -143 -138 -183 -214
l-36 -69 -58 -11 c-384 -76 -677 -191 -816 -320 -64 -59 -88 -98 -124 -205
-113 -330 -220 -834 -263 -1235 -16 -149 -16 -493 0 -595 59 -378 228 -551
503 -514 80 11 403 67 429 75 12 3 22 -22 49 -128 43 -171 121 -417 170 -532
35 -84 39 -100 43 -211 3 -74 13 -151 26 -200 25 -96 94 -239 152 -315 l42
-54 -7 -150 c-4 -83 -8 -152 -11 -154 -2 -2 -39 15 -82 39 -548 300 -1032 767
-1356 1309 -250 420 -397 847 -473 1376 -25 176 -30 595 -10 794 87 842 445
1593 1041 2184 625 620 1436 979 2325 1030 117 7 442 -4 585 -20z m-929 -572
c182 -67 340 -192 454 -357 71 -103 163 -336 191 -481 15 -83 8 -238 -14 -288
l-17 -39 -63 60 c-194 185 -458 284 -629 234 -32 -9 -70 -33 -112 -70 -118
-104 -221 -135 -306 -91 l-44 23 -36 -44 c-61 -75 -108 -124 -115 -118 -3 4
-17 53 -31 110 -41 167 -93 246 -177 271 -23 7 -45 17 -49 23 -13 18 -8 197 7
270 38 179 135 285 305 331 54 15 72 26 109 66 50 56 108 93 189 119 87 29
231 21 338 -19z m-881 -886 c36 -36 60 -91 89 -206 35 -136 54 -174 91 -178
25 -3 40 8 106 78 l77 81 42 -11 c90 -24 224 23 330 118 30 27 70 54 89 60
125 43 359 -41 530 -190 130 -113 123 -175 -33 -314 -49 -44 -74 -76 -96 -123
-92 -196 -276 -382 -490 -496 -67 -36 -82 -40 -145 -40 -53 1 -80 6 -112 23
-99 52 -221 209 -309 398 -52 110 -125 304 -145 382 -7 28 -16 52 -20 52 -17
0 -113 97 -125 127 -27 64 -15 149 33 226 27 43 53 48 88 13z m15 -626 c93
-250 183 -412 298 -532 133 -139 256 -175 400 -116 53 22 62 24 57 10 -4 -10
-36 -102 -72 -207 -36 -104 -68 -193 -72 -197 -4 -4 -38 34 -76 84 -38 51
-128 162 -199 247 -151 182 -198 253 -281 417 -94 186 -140 346 -120 421 8 33
1 46 65 -127z m-137 33 c7 -88 44 -199 118 -347 32 -66 59 -120 59 -122 0 -1
-20 4 -44 11 -24 7 -103 24 -176 36 l-133 23 5 127 c4 114 8 133 32 182 28 54
110 157 125 157 5 0 11 -30 14 -67z m-249 -306 c-6 -109 -6 -114 17 -140 21
-24 37 -29 129 -43 114 -17 239 -46 300 -70 29 -12 69 -53 173 -177 167 -202
280 -346 324 -414 35 -55 67 -69 92 -40 6 8 49 126 97 263 47 137 93 268 101
291 11 32 30 53 81 91 37 28 87 71 112 96 40 42 49 46 91 46 66 0 224 -42 299
-80 77 -39 158 -114 187 -172 12 -24 42 -110 68 -191 51 -165 147 -442 224
-646 28 -74 51 -137 51 -141 0 -6 -153 -40 -182 -40 -18 0 -53 103 -137 405
-87 317 -155 477 -237 562 -50 53 -56 54 -292 12 -138 -24 -182 -35 -200 -52
-83 -77 -39 -317 133 -730 32 -75 56 -139 54 -141 -2 -2 -87 -41 -189 -85
l-185 -82 -62 32 c-59 30 -67 31 -137 25 -97 -9 -177 -30 -250 -66 -33 -17
-72 -30 -88 -30 -87 0 -348 -76 -652 -189 -104 -39 -190 -70 -192 -68 -1 1 9
35 23 76 48 145 66 315 67 633 0 222 -3 290 -13 302 -16 19 -60 21 -62 4 -1
-7 -1 -121 0 -253 4 -427 -42 -703 -134 -801 -33 -35 -34 -37 -19 -65 8 -16
16 -29 18 -29 2 0 69 25 148 56 292 115 674 244 720 244 6 0 -12 -24 -40 -53
-74 -79 -106 -147 -107 -227 0 -50 5 -74 23 -104 13 -21 19 -42 15 -46 -4 -5
-78 -67 -163 -140 -85 -73 -159 -140 -164 -148 -14 -24 -9 -72 9 -92 9 -10 12
-20 8 -23 -17 -11 -240 -67 -363 -92 -259 -53 -484 -87 -541 -82 -69 6 -145
44 -189 93 -47 54 -97 165 -120 269 -42 184 -37 559 11 890 63 432 213 1015
287 1116 91 123 373 254 717 332 162 38 148 46 139 -86z m3399 -161 c18 -7 40
-22 49 -32 9 -11 114 -300 233 -644 119 -344 287 -827 372 -1073 85 -246 154
-450 151 -452 -2 -2 -108 30 -236 71 -196 63 -232 78 -228 92 25 85 8 133 -58
163 -43 19 -45 21 -75 112 -17 50 -31 97 -31 103 0 6 11 16 24 22 36 16 105
81 122 113 19 38 18 184 -2 262 -18 71 -63 163 -111 230 -27 36 -71 152 -194
504 -88 251 -166 468 -175 481 -9 13 -14 25 -12 26 9 6 106 34 121 35 10 1 32
-5 50 -13z m-239 -78 c20 -18 58 -115 172 -441 80 -230 144 -420 142 -421 -1
-2 -35 -6 -75 -8 l-72 -5 -14 41 c-8 22 -71 204 -141 402 -69 199 -126 369
-126 378 0 27 19 56 43 66 34 14 44 12 71 -12z m-1414 -225 c69 -78 138 -259
240 -626 83 -301 495 -1543 1105 -3332 13 -38 23 -71 21 -72 -1 -2 -53 -21
-115 -43 l-112 -40 -10 28 c-24 62 -580 1706 -888 2622 -231 690 -288 867
-345 1070 -39 137 -90 267 -131 329 -20 29 -34 55 -32 57 3 3 200 41 223 43 7
1 26 -16 44 -36z m-360 -33 c58 -31 131 -191 200 -440 27 -96 85 -283 128
-415 137 -413 745 -2213 986 -2920 58 -170 106 -315 106 -322 0 -6 -71 -28
-170 -52 l-169 -41 -247 74 c-136 42 -248 77 -249 78 -1 2 -17 55 -34 118 -34
121 -94 261 -137 317 -14 19 -24 36 -22 39 3 2 170 -30 373 -71 202 -42 370
-74 372 -71 8 7 -468 1480 -706 2186 -150 446 -239 691 -345 950 -41 102 -87
228 -101 280 -39 144 -46 300 -14 300 6 0 19 -5 29 -10z m2147 -726 c73 -78
132 -239 133 -362 0 -48 -4 -56 -42 -98 -78 -84 -324 -185 -668 -273 -166 -42
-568 -126 -574 -120 -10 10 -206 622 -201 627 3 3 263 63 578 133 469 104 587
127 656 128 l84 1 34 -36z m-2001 -200 c8 -19 17 -48 20 -63 6 -28 5 -29 -124
-80 -71 -28 -134 -51 -138 -51 -5 1 -31 21 -59 45 l-50 44 35 15 c19 8 91 40
160 70 69 30 129 55 133 55 4 1 15 -15 23 -35z m-462 -124 c76 -49 176 -135
176 -150 0 -5 -15 6 -32 22 -82 77 -149 99 -156 52 -2 -17 12 -33 58 -69 91
-70 114 -136 56 -163 -22 -10 -29 -6 -71 36 -25 26 -65 75 -88 109 -34 50 -47
62 -69 63 -18 0 -29 -6 -33 -20 -8 -25 56 -121 136 -205 47 -50 55 -64 48 -82
-9 -24 -57 -53 -86 -53 -35 1 -111 68 -159 144 -27 41 -57 78 -67 81 -21 8
-47 -11 -47 -34 0 -42 140 -212 204 -248 53 -30 -67 -48 -123 -18 -40 20 -102
93 -140 164 -36 68 -43 75 -70 66 -30 -9 -33 -33 -10 -78 30 -59 104 -162 134
-185 35 -28 31 -36 -16 -28 -82 13 -250 118 -288 180 -29 46 -27 105 4 167 41
79 161 191 263 243 53 27 172 55 238 55 57 1 67 -2 138 -49z m721 -632 c109
-326 200 -598 202 -604 3 -7 -21 -16 -64 -23 -190 -33 -549 -141 -1023 -306
-652 -228 -830 -287 -844 -282 -41 16 -157 316 -240 622 -53 197 -66 171 106
216 81 21 162 45 180 52 27 11 38 11 63 1 92 -40 176 3 400 202 l94 84 58 0
c40 0 68 6 91 20 20 12 50 20 78 20 62 0 110 23 134 63 12 19 34 40 50 47 41
17 88 67 95 101 4 17 19 35 40 48 43 25 68 63 69 106 1 18 10 42 19 53 10 11
21 32 26 47 6 25 22 34 126 75 66 27 125 48 131 49 6 1 100 -266 209 -591z
m1734 261 l20 -60 -28 6 c-16 3 -62 16 -102 28 l-73 23 75 31 c40 18 77 32 81
33 3 0 15 -27 27 -61z m-192 -81 c62 -17 110 -34 107 -37 -3 -3 -32 -15 -64
-27 -192 -69 -390 -245 -390 -346 l0 -28 -167 59 c-93 32 -217 77 -278 98
l-110 40 -12 43 c-7 24 -12 44 -10 46 1 1 76 16 167 33 173 34 439 96 550 130
36 11 71 20 79 20 8 1 65 -13 128 -31z m-2821 -135 c86 -54 90 -41 -44 -156
-116 -100 -189 -147 -230 -147 -39 0 -78 19 -109 52 l-22 23 160 138 c89 75
163 137 166 137 3 0 39 -21 79 -47z m3152 25 c37 -31 -14 -119 -118 -201 -63
-50 -183 -112 -264 -136 -115 -35 -226 -25 -226 21 0 80 204 245 375 303 100
34 200 39 233 13z m412 -297 c118 -38 376 -122 572 -186 l357 -116 -25 -52
-26 -53 -688 215 -687 215 56 52 55 51 86 -28 c47 -15 182 -59 300 -98z
m-1260 -51 c173 -62 389 -138 480 -170 91 -32 275 -97 410 -145 475 -168 586
-207 673 -237 49 -17 85 -34 80 -38 -4 -4 -49 -21 -99 -37 l-90 -30 -345 137
c-189 75 -590 235 -891 355 -525 208 -547 218 -557 248 -6 16 -11 32 -11 35 0
6 5 5 350 -118z m1069 -101 c638 -199 1026 -321 1029 -324 6 -5 -104 -188
-115 -192 -7 -3 -50 9 -95 27 -46 17 -375 135 -733 262 -357 126 -663 235
-678 240 -28 10 -26 12 55 42 45 18 97 39 113 49 17 9 32 16 34 17 2 0 177
-54 390 -121z m-629 -234 c382 -152 758 -302 835 -332 77 -30 143 -60 146 -65
10 -15 42 -169 37 -174 -3 -2 -234 88 -514 201 -280 113 -655 265 -834 337
-179 72 -330 135 -337 140 -6 5 -22 42 -34 81 -12 40 -24 78 -27 86 -4 10 0
13 14 9 10 -3 332 -130 714 -283z m-265 -141 c859 -348 1325 -534 1338 -534 7
0 66 20 132 45 65 25 120 43 122 41 13 -13 -337 -396 -362 -396 -6 0 -342 139
-745 308 l-733 308 -63 187 c-34 103 -59 187 -55 187 4 0 169 -66 366 -146z
m-869 -250 c56 -170 100 -310 98 -312 -1 -2 -38 2 -81 9 -108 17 -305 17 -373
0 -149 -37 -200 -101 -200 -248 0 -83 26 -197 60 -262 10 -20 41 -63 69 -95
94 -110 146 -236 207 -496 19 -80 34 -149 34 -154 0 -14 -491 1 -614 18 -109
16 -315 52 -348 62 -9 3 -47 47 -83 99 -131 185 -264 307 -423 390 -268 139
-413 348 -447 644 l-7 64 27 -7 c34 -9 113 15 555 171 442 156 809 278 1015
338 155 45 380 96 400 91 5 -1 55 -142 111 -312z m2554 65 l80 -31 -17 -29
c-40 -68 -65 -84 -222 -142 -84 -32 -155 -56 -156 -55 -6 7 -45 191 -42 195 5
4 258 91 270 92 4 1 44 -13 87 -30z m-1270 -404 c239 -101 503 -211 585 -245
83 -34 154 -65 158 -70 7 -6 -113 -114 -193 -172 l-35 -25 -180 82 c-99 46
-331 151 -515 234 -184 84 -338 156 -342 160 -7 6 -108 285 -108 296 0 5 54
-17 630 -260z m-1274 -40 c49 -9 96 -18 105 -20 10 -3 26 -38 42 -88 14 -45
50 -160 81 -256 31 -96 54 -176 52 -178 -2 -2 -165 29 -362 69 l-359 73 -24
70 c-28 83 -34 202 -12 253 15 35 63 66 128 81 62 15 254 12 349 -4z m878
-140 c42 -20 76 -38 76 -41 0 -3 20 -96 45 -207 l46 -201 -35 -35 c-20 -19
-37 -33 -39 -30 -4 4 -187 538 -187 545 0 9 21 2 94 -31z m689 -313 c81 -36
147 -69 147 -73 0 -3 -34 -29 -75 -56 l-76 -50 -219 37 c-121 20 -222 39 -225
42 -6 6 -75 298 -75 320 0 13 39 -1 188 -68 103 -47 253 -115 335 -152z
m-3388 -152 c33 -21 68 -45 79 -52 17 -12 18 -23 11 -131 -4 -64 -11 -117 -16
-117 -4 0 -41 15 -81 33 l-73 34 3 136 c2 75 6 137 10 137 4 0 34 -18 67 -40z
m3103 -57 c94 -15 172 -29 172 -33 0 -11 -118 -70 -141 -70 -21 0 -192 30
-257 45 -23 6 -22 6 10 45 18 22 35 40 38 40 3 0 83 -12 178 -27z m-2880 -75
c26 -18 71 -54 99 -81 l53 -50 -6 -71 c-4 -39 -8 -72 -9 -74 -1 -1 -44 13 -96
32 l-94 34 -3 121 c-1 66 0 121 3 121 4 0 27 -14 53 -32z m2726 -73 c44 -9 81
-17 83 -18 4 -4 -139 -67 -152 -67 -5 0 -17 23 -27 50 -19 59 -23 58 96 35z
m-2460 -194 c20 -27 36 -51 36 -54 0 -3 -18 0 -40 5 -39 10 -40 11 -40 54 0
24 2 44 4 44 2 0 20 -22 40 -49z m1343 -103 c79 -23 142 -43 140 -44 -4 -4
-160 -23 -217 -26 l-54 -3 -12 58 c-6 31 -8 57 -5 57 3 0 70 -18 148 -42z"/>
<path d="M7615 30113 c-151 -10 -441 -48 -594 -79 -1251 -247 -2320 -1003
-2996 -2119 -84 -139 -249 -473 -311 -630 -145 -371 -238 -745 -291 -1170 -25
-202 -25 -791 0 -990 74 -587 209 -1041 457 -1536 208 -414 467 -774 809
-1122 747 -761 1683 -1212 2756 -1329 160 -17 749 -17 910 0 946 103 1780 463
2491 1075 218 188 493 484 671 722 435 581 731 1292 837 2010 61 415 62 925 1
1338 -138 934 -562 1789 -1225 2471 -289 297 -579 527 -925 734 -601 359
-1260 566 -1984 622 -123 9 -484 11 -606 3z m591 -83 c1094 -85 2051 -520
2814 -1280 678 -675 1116 -1540 1255 -2477 63 -425 61 -913 -6 -1343 -94 -610
-316 -1190 -657 -1715 -584 -900 -1484 -1565 -2502 -1850 -438 -122 -715 -159
-1200 -160 -415 0 -638 23 -987 100 -1301 291 -2417 1178 -3002 2385 -225 467
-351 899 -418 1445 -22 177 -25 737 -5 920 132 1219 711 2276 1661 3033 681
543 1521 871 2411 941 153 12 487 13 636 1z"/>
<path d="M7680 29799 c-812 -39 -1609 -324 -2265 -811 -1248 -927 -1878 -2432
-1659 -3968 168 -1180 837 -2235 1839 -2895 204 -135 308 -194 497 -284 434
-208 867 -330 1373 -387 208 -24 663 -24 870 0 289 33 514 77 753 148 996 293
1857 959 2400 1856 271 446 465 972 546 1482 38 241 50 395 50 680 0 295 -12
449 -55 700 -242 1445 -1234 2662 -2609 3203 -301 118 -641 204 -980 248 -138
17 -496 41 -575 37 -16 0 -100 -4 -185 -9z m755 -108 c1013 -139 1913 -625
2570 -1386 563 -653 880 -1384 981 -2260 24 -206 24 -643 0 -847 -82 -711
-297 -1305 -677 -1870 -243 -362 -589 -726 -945 -995 -508 -384 -1113 -646
-1749 -758 -257 -45 -420 -58 -715 -58 -192 0 -320 5 -425 17 -810 91 -1517
381 -2145 882 -173 138 -496 461 -632 632 -513 644 -809 1376 -888 2197 -18
179 -15 599 5 790 90 861 434 1649 1002 2295 649 737 1557 1228 2508 1354 234
31 294 34 625 31 270 -2 364 -7 485 -24z"/>
<path d="M7885 29438 c-73 -46 -176 -154 -218 -228 -47 -85 -67 -165 -67 -270
0 -170 56 -298 187 -427 l83 -83 -2 -225 -3 -225 -55 82 c-30 46 -89 124 -132
175 l-77 92 9 63 c40 277 -165 509 -448 508 -95 0 -99 -3 -116 -80 -38 -166
-6 -301 98 -416 77 -86 214 -144 341 -144 59 0 62 -1 107 -47 56 -59 135 -167
216 -297 l62 -99 0 -900 0 -899 -37 27 c-349 259 -575 577 -686 965 -28 95
-57 255 -57 309 0 33 6 40 64 83 113 82 191 203 221 344 18 87 18 131 0 217
-23 112 -69 191 -166 290 -51 52 -94 87 -106 87 -29 0 -153 -91 -206 -151 -97
-111 -140 -226 -140 -369 1 -161 68 -307 192 -422 l58 -53 7 -74 c20 -224 110
-496 232 -701 30 -51 53 -94 51 -96 -6 -7 -127 44 -205 86 -195 105 -358 270
-459 466 -78 150 -134 350 -148 524 l-6 75 51 35 c63 43 131 132 161 208 31
81 32 215 1 293 -31 77 -87 155 -150 206 l-53 44 -42 -23 c-63 -35 -158 -135
-190 -202 -81 -166 -47 -364 87 -501 l53 -54 7 -83 c4 -46 15 -126 26 -178 11
-52 20 -99 20 -103 0 -4 -30 15 -67 44 -37 28 -90 64 -119 80 -47 27 -52 34
-58 73 -19 122 -126 264 -241 318 -131 61 -257 58 -394 -7 -81 -39 -83 -45
-56 -150 60 -230 264 -370 488 -335 40 6 95 22 124 35 l52 23 58 -34 c130 -79
264 -206 308 -295 84 -166 224 -334 370 -444 82 -62 283 -160 383 -187 l84
-23 71 -84 c86 -101 233 -233 339 -304 l77 -52 1 -127 0 -128 -41 0 c-136 0
-456 71 -629 139 -285 113 -550 304 -712 514 l-45 59 18 58 c64 205 12 419
-137 568 -103 104 -206 148 -384 167 -94 10 -111 0 -138 -81 -32 -94 -40 -235
-18 -328 57 -241 291 -423 546 -426 42 -1 48 -4 80 -48 52 -70 186 -207 265
-272 95 -78 220 -158 343 -219 56 -28 102 -53 102 -55 0 -11 -212 -28 -340
-28 -233 1 -423 42 -601 131 -124 62 -197 117 -312 233 l-109 109 7 73 c29
303 -223 538 -523 486 -91 -15 -96 -23 -90 -171 4 -92 8 -114 35 -171 75 -161
219 -248 408 -248 l92 0 62 -74 c35 -41 96 -102 137 -137 41 -34 74 -62 74
-63 0 -1 -87 -1 -194 -1 l-194 0 -42 34 c-192 154 -440 143 -603 -28 -52 -55
-107 -144 -107 -175 0 -8 26 -38 58 -67 219 -200 522 -162 683 87 l41 62 86 8
c49 4 162 2 258 -4 161 -11 174 -13 245 -46 94 -43 218 -81 339 -102 181 -33
503 -19 685 30 47 12 57 11 150 -16 127 -36 290 -66 411 -74 l94 -7 0 -938 c0
-517 -2 -939 -5 -939 -3 0 -45 15 -94 34 -359 139 -606 379 -665 649 -29 131
-31 120 30 162 179 123 279 350 244 553 -22 134 -113 279 -232 374 l-41 32
-56 -29 c-74 -39 -188 -154 -227 -230 -53 -101 -68 -160 -67 -265 1 -160 55
-283 175 -404 64 -64 68 -71 78 -131 27 -172 91 -305 213 -447 l49 -58 -34 6
c-114 22 -297 98 -391 163 -148 102 -259 249 -317 422 -20 59 -50 205 -50 239
0 8 24 31 52 50 62 42 129 129 159 208 29 76 32 205 6 280 -27 75 -90 166
-154 217 l-55 45 -40 -23 c-61 -34 -160 -136 -190 -198 -82 -167 -48 -367 84
-503 54 -56 54 -57 67 -146 7 -50 24 -125 37 -168 13 -42 24 -78 24 -79 0 0
-35 19 -77 43 -43 24 -101 54 -129 65 -49 21 -53 24 -59 65 -10 66 -69 175
-127 233 -28 28 -80 66 -116 83 -55 28 -78 33 -157 36 -101 5 -170 -10 -257
-54 -55 -28 -58 -41 -33 -139 70 -267 330 -406 584 -313 31 11 61 25 68 30 16
13 144 -48 250 -118 52 -34 128 -101 201 -176 69 -70 150 -141 197 -173 137
-91 299 -152 483 -180 79 -12 104 -21 159 -55 93 -59 246 -132 335 -161 l78
-24 0 -207 c0 -197 1 -208 20 -218 14 -8 26 -8 40 0 19 10 20 21 20 218 l0
207 64 19 c78 22 268 112 353 167 49 33 76 42 135 50 180 25 360 89 493 177
51 34 138 110 217 188 138 136 227 202 353 260 l73 34 56 -26 c167 -76 372
-41 495 85 72 74 131 207 131 298 0 29 -5 35 -47 56 -96 48 -148 60 -251 55
-78 -3 -108 -9 -155 -31 -117 -54 -219 -181 -248 -311 l-12 -54 -73 -32 c-40
-17 -96 -47 -126 -65 -29 -19 -54 -33 -55 -31 -1 1 9 38 23 81 14 44 30 118
36 165 11 83 13 86 64 141 202 215 169 520 -74 686 l-64 43 -45 -32 c-134 -96
-210 -273 -183 -428 21 -119 108 -253 202 -307 29 -18 30 -19 23 -76 -27 -241
-157 -472 -340 -602 -110 -79 -285 -154 -415 -179 l-34 -6 35 37 c112 118 190
269 222 427 l20 105 72 73 c267 272 219 666 -109 884 l-57 38 -36 -19 c-91
-49 -215 -225 -244 -345 -53 -220 43 -463 236 -595 62 -43 61 -37 29 -170 -56
-231 -251 -444 -539 -588 -59 -29 -205 -87 -221 -87 -2 0 -4 423 -4 940 l0
940 43 0 c104 0 338 41 484 84 70 21 82 22 128 10 189 -49 500 -63 685 -30
121 21 245 59 339 102 71 33 84 35 245 46 95 6 209 8 258 4 l86 -8 36 -57
c123 -200 357 -274 559 -179 75 36 187 129 187 155 0 33 -65 135 -119 186 -31
30 -79 66 -107 80 -151 76 -338 53 -480 -61 l-59 -48 -55 9 c-30 4 -115 7
-187 5 l-133 -3 58 52 c31 29 60 52 63 53 4 0 39 38 80 85 l73 85 91 0 c152 0
275 57 357 165 59 77 81 144 86 260 6 141 1 150 -90 165 -301 52 -552 -181
-523 -485 l6 -71 -83 -89 c-244 -260 -547 -386 -938 -387 -142 0 -341 18 -339
31 0 3 58 34 127 69 70 34 169 93 221 130 116 82 271 229 343 322 52 68 54 70
98 70 73 0 180 27 255 64 229 114 343 356 291 614 -23 116 -41 149 -83 157
-40 7 -179 -11 -242 -32 -289 -96 -445 -405 -353 -700 l20 -62 -80 -96 c-248
-297 -630 -506 -1072 -585 -61 -11 -148 -23 -193 -27 l-83 -6 1 129 0 129 85
59 c118 82 235 187 326 292 l77 89 83 23 c111 30 286 117 384 190 146 109 267
252 355 419 58 110 181 231 324 318 l56 33 52 -23 c258 -118 546 27 612 307
24 104 24 104 -56 143 -38 18 -102 39 -140 45 -224 38 -444 -117 -492 -346
-11 -52 -13 -55 -74 -91 -35 -20 -91 -59 -125 -86 -38 -31 -58 -42 -54 -31 15
38 45 201 52 282 l7 83 53 54 c200 205 164 523 -77 684 -61 41 -61 41 -91 23
-52 -30 -130 -124 -167 -202 -33 -70 -36 -81 -35 -170 0 -74 5 -107 23 -152
30 -78 98 -166 160 -208 l52 -35 -6 -70 c-42 -506 -320 -899 -752 -1061 -35
-13 -63 -21 -63 -18 0 3 23 43 51 91 119 196 215 485 235 705 7 77 7 77 56
118 73 62 144 169 174 264 61 191 19 386 -117 539 -47 54 -173 147 -198 147
-22 0 -100 -66 -156 -131 -121 -141 -163 -340 -110 -512 36 -117 130 -247 225
-308 59 -38 60 -40 30 -215 -60 -353 -244 -692 -516 -954 -87 -84 -219 -190
-235 -190 -5 0 -9 402 -9 893 l0 894 51 84 c74 121 153 232 215 298 l54 58 87
5 c291 18 471 242 423 527 -16 97 -31 111 -115 111 -136 0 -271 -54 -347 -139
-86 -96 -131 -250 -110 -370 l11 -62 -69 -80 c-38 -44 -98 -123 -134 -176
l-66 -97 0 231 0 231 50 37 c145 107 236 270 247 445 10 156 -46 305 -161 428
-49 52 -134 123 -148 122 -2 0 -25 -14 -53 -32z m129 -131 c165 -168 200 -390
94 -590 -34 -63 -124 -160 -175 -190 l-32 -17 -65 65 c-47 47 -77 89 -107 150
-39 78 -42 92 -47 183 -7 144 30 251 120 354 41 47 118 108 137 108 7 0 41
-28 75 -63z m-684 -523 c78 -35 150 -112 180 -192 23 -60 30 -159 16 -221 l-8
-34 -70 6 c-134 11 -252 91 -307 207 -22 47 -26 69 -26 145 0 128 0 129 85
122 44 -4 92 -16 130 -33z m1373 -14 c39 -214 -111 -408 -332 -427 -68 -6 -70
-5 -75 18 -15 71 -16 105 -6 161 32 177 181 301 355 295 l50 -2 8 -45z m-2173
-501 c52 -54 98 -149 106 -221 13 -111 -51 -248 -152 -324 l-37 -28 -52 56
c-69 74 -98 147 -99 248 0 101 34 178 114 255 32 30 63 55 69 55 6 0 29 -19
51 -41z m2876 -11 c34 -32 67 -76 87 -117 28 -57 32 -75 31 -141 -1 -99 -30
-173 -96 -245 -27 -30 -54 -55 -58 -55 -25 0 -122 108 -152 167 -28 57 -32 76
-32 147 -1 71 3 89 30 146 32 66 101 150 123 150 7 0 37 -23 67 -52z m-2239
-71 c145 -158 178 -346 93 -534 -32 -70 -127 -178 -185 -209 l-35 -18 -46 44
c-90 88 -135 175 -154 298 -25 158 52 331 193 438 67 50 71 50 134 -19z m1599
34 c67 -49 144 -138 174 -203 82 -175 39 -397 -104 -538 l-56 -54 -36 19 c-59
32 -143 124 -180 200 -91 185 -60 379 88 540 33 36 63 65 67 65 5 0 26 -13 47
-29z m-2930 -482 c76 -14 144 -51 195 -107 44 -47 87 -130 96 -186 5 -33 5
-34 -53 -56 -79 -29 -188 -29 -266 0 -101 38 -182 134 -214 253 l-13 49 46 20
c25 11 66 24 92 28 25 4 49 8 52 9 3 0 32 -4 65 -10z m4342 -21 c45 -17 52
-23 52 -46 -1 -37 -40 -131 -75 -176 -34 -45 -99 -91 -157 -112 -65 -23 -181
-20 -252 6 l-58 22 6 40 c15 91 98 207 181 251 91 48 199 53 303 15z m-4174
-633 c297 -53 466 -327 380 -616 l-16 -52 -67 7 c-303 28 -497 279 -442 572
14 74 28 104 48 104 10 -1 54 -7 97 -15z m3948 -55 c31 -120 18 -251 -33 -352
-27 -54 -122 -153 -175 -184 -61 -36 -149 -63 -226 -71 -67 -6 -67 -6 -78 22
-24 64 -34 171 -21 246 34 207 182 355 394 394 116 22 119 21 139 -55z m-4465
-390 c77 -38 144 -111 173 -187 27 -72 36 -162 20 -192 -11 -22 -16 -23 -104
-19 -75 3 -103 9 -148 31 -124 61 -189 163 -196 309 l-4 86 28 5 c68 12 168
-3 231 -33z m5067 33 l38 -6 -4 -87 c-5 -107 -36 -176 -108 -244 -72 -68 -126
-89 -237 -94 -86 -4 -92 -3 -103 18 -8 15 -10 43 -5 83 25 222 207 365 419
330z m-5229 -738 c61 -16 137 -59 170 -95 23 -26 9 -61 -46 -119 -117 -122
-267 -152 -411 -83 -35 16 -78 43 -97 59 l-35 30 27 45 c46 79 136 146 224
167 58 14 103 12 168 -4z m5412 -25 c62 -31 130 -96 160 -154 15 -29 15 -30
-18 -58 -59 -51 -154 -90 -227 -95 -115 -9 -240 53 -312 153 -37 52 -37 64 -2
96 108 99 267 123 399 58z m-4203 -480 c26 -28 59 -76 74 -108 66 -144 9 -334
-129 -433 l-31 -22 -44 44 c-25 24 -59 73 -76 108 -28 55 -32 74 -32 145 -1
72 3 89 32 148 29 60 127 168 151 168 5 0 29 -23 55 -50z m2868 3 c64 -60 92
-105 114 -179 22 -77 14 -156 -24 -238 -27 -58 -100 -146 -120 -146 -16 0 -93
72 -123 116 -43 63 -60 119 -60 200 0 95 28 168 93 239 27 30 54 55 59 55 6 0
33 -21 61 -47z m-2227 -85 c61 -70 113 -177 127 -261 27 -164 -53 -346 -201
-457 l-53 -40 -38 31 c-48 39 -117 136 -141 198 -80 212 -19 409 174 562 57
46 63 44 132 -33z m1623 19 c97 -74 171 -204 187 -327 16 -127 -44 -287 -145
-391 l-59 -60 -43 29 c-24 16 -64 52 -89 78 -145 156 -175 363 -78 545 39 72
142 184 161 173 7 -4 37 -25 66 -47z m-2894 -478 c104 -38 205 -161 222 -270
6 -35 5 -36 -47 -59 -79 -35 -203 -34 -280 2 -103 47 -174 133 -204 249 -13
47 -12 50 8 61 79 42 214 50 301 17z m4276 -2 c50 -21 55 -25 52 -51 -16 -144
-156 -283 -306 -301 -58 -8 -149 7 -204 33 -31 15 -33 19 -27 52 22 118 120
233 233 275 61 22 187 18 252 -8z"/>
<path d="M4097 25863 c-32 -388 -10 -770 64 -1138 204 -1008 792 -1845 1671
-2376 517 -313 1150 -526 1813 -610 288 -37 665 2 1105 112 639 160 1184 425
1660 807 130 105 397 373 504 507 507 635 774 1383 803 2245 5 160 -10 516
-22 528 -7 7 -109 -20 -180 -48 -234 -93 -402 -269 -506 -532 -33 -83 -67
-233 -88 -388 -19 -135 -53 -277 -85 -355 l-14 -33 -53 10 c-69 13 -216 4
-294 -17 -199 -53 -344 -168 -665 -525 -427 -474 -608 -609 -1122 -836 -189
-84 -272 -129 -365 -199 -115 -85 -222 -224 -307 -393 -39 -77 -106 -266 -106
-298 0 -35 -17 1 -49 106 -63 200 -189 411 -319 532 -104 95 -213 160 -442
258 -474 203 -693 366 -1100 820 -325 362 -458 469 -660 531 -75 23 -223 32
-325 19 l-40 -5 -32 95 c-18 53 -39 138 -47 190 -9 52 -23 142 -32 200 -61
394 -251 677 -539 805 -57 25 -187 65 -211 65 -7 0 -14 -30 -17 -77z m133 -38
c189 -67 339 -200 434 -384 75 -146 108 -268 141 -514 59 -442 331 -891 885
-1460 224 -231 572 -547 602 -547 19 0 38 20 38 41 0 10 -76 85 -172 171 -516
459 -915 926 -1101 1285 l-47 90 47 7 c162 22 330 -23 479 -130 100 -71 172
-142 405 -400 423 -469 636 -627 1129 -840 305 -131 432 -224 552 -402 149
-221 222 -465 235 -785 l6 -158 -59 6 c-629 63 -1150 208 -1659 465 -371 186
-637 375 -919 650 -286 280 -492 558 -666 900 -234 462 -355 922 -390 1485
-14 209 -5 535 14 535 2 0 23 -7 46 -15z m7405 -152 c22 -482 -63 -1031 -226
-1469 -363 -974 -1091 -1696 -2116 -2098 -400 -157 -815 -253 -1297 -301 l-59
-6 6 153 c16 395 132 704 344 921 104 107 212 172 468 282 172 74 352 168 466
244 219 146 357 272 648 595 224 249 306 329 413 403 126 88 298 134 441 119
l68 -8 -54 -101 c-198 -373 -583 -822 -1100 -1281 -92 -81 -167 -156 -167
-165 0 -22 19 -41 40 -41 48 0 683 614 879 850 210 251 337 436 440 640 103
203 141 326 175 565 27 190 60 315 111 423 72 154 157 256 278 336 74 48 194
105 223 106 8 0 14 -53 19 -167z"/>
<path d="M22879 30110 c-699 -52 -1328 -262 -1899 -635 -885 -577 -1507 -1494
-1714 -2525 -58 -287 -70 -420 -70 -770 -1 -408 23 -616 110 -965 293 -1177
1125 -2161 2249 -2660 257 -114 611 -220 899 -270 431 -74 908 -76 1336 -4
1678 278 3005 1635 3250 3323 57 395 51 864 -16 1241 -123 686 -413 1314 -859
1852 -106 128 -354 378 -480 484 -613 515 -1338 825 -2135 914 -168 19 -517
26 -671 15z m661 -86 c270 -29 524 -82 770 -160 377 -119 794 -332 1118 -572
826 -608 1379 -1518 1536 -2522 33 -218 41 -322 41 -600 0 -353 -19 -529 -90
-850 -210 -943 -796 -1805 -1595 -2346 -524 -355 -1067 -561 -1710 -650 -156
-21 -617 -30 -791 -15 -1179 103 -2228 715 -2888 1686 -358 528 -575 1113
-651 1760 -18 150 -24 526 -11 695 111 1465 1023 2730 2377 3299 588 246 1262
345 1894 275z"/>
<path d="M22835 29829 c-647 -52 -1275 -281 -1817 -662 -334 -235 -663 -566
-900 -907 -300 -432 -506 -932 -598 -1450 -69 -394 -71 -866 -4 -1255 215
-1258 1085 -2329 2274 -2798 1006 -396 2150 -326 3095 190 1026 560 1726 1572
1884 2723 27 200 33 292 33 519 -2 441 -74 845 -224 1249 -469 1267 -1587
2172 -2923 2366 -234 34 -577 45 -820 25z m620 -74 c462 -42 850 -152 1270
-359 369 -182 659 -390 950 -681 569 -567 919 -1276 1031 -2085 22 -158 30
-601 14 -772 -62 -691 -321 -1348 -745 -1893 -459 -590 -1109 -1034 -1819
-1244 -338 -100 -655 -144 -1026 -144 -282 0 -442 15 -706 68 -1356 274 -2443
1309 -2779 2645 -75 300 -95 461 -102 811 -6 313 6 471 53 729 184 1002 808
1898 1693 2430 646 388 1417 564 2166 495z"/>
<path d="M23934 29021 c-64 -32 -93 -41 -135 -41 -108 -1 -185 -47 -250 -150
-25 -40 -53 -72 -64 -75 -30 -6 -725 -75 -762 -75 -29 0 -608 104 -976 175
-70 14 -152 25 -182 25 -101 0 -174 -45 -223 -138 -25 -47 -38 -61 -61 -65
-16 -4 -45 -22 -64 -41 -37 -37 -57 -99 -57 -176 0 -35 -3 -40 -45 -60 -71
-35 -89 -68 -95 -180 -4 -83 -9 -101 -35 -145 -27 -45 -30 -59 -30 -131 0 -76
3 -87 43 -163 23 -44 42 -85 42 -90 0 -4 -74 -159 -165 -343 l-164 -336 -400
-431 c-350 -378 -402 -438 -417 -483 -22 -69 -14 -143 24 -211 25 -45 29 -60
25 -107 -7 -79 13 -119 87 -177 59 -46 62 -49 56 -83 -13 -80 26 -145 120
-201 41 -25 62 -46 79 -79 52 -101 127 -147 260 -159 45 -5 86 -11 92 -14 6
-4 113 -151 238 -327 l227 -321 130 -377 c71 -207 154 -450 185 -539 65 -192
93 -239 165 -279 46 -25 63 -29 131 -28 42 0 77 -3 77 -7 0 -5 20 -20 43 -34
57 -33 105 -32 191 5 61 26 72 28 86 15 24 -22 86 -45 119 -45 17 0 64 17 105
39 61 31 88 39 148 43 41 3 88 13 108 22 50 26 106 82 145 146 l34 56 233 23
c128 12 305 30 393 40 135 14 171 15 225 4 489 -94 1048 -193 1091 -193 97 1
190 64 225 155 13 35 22 44 48 49 68 13 114 83 123 187 l6 69 44 21 c67 32 93
85 93 187 0 74 3 85 33 133 29 48 32 59 32 134 0 78 -3 87 -42 164 -24 44 -43
87 -43 95 0 8 74 163 164 344 l165 330 391 424 c216 232 402 441 413 463 16
29 21 58 22 110 0 60 -4 78 -31 125 -27 48 -31 62 -27 110 7 79 -13 119 -86
176 l-61 47 0 62 c0 79 -23 115 -110 172 -43 28 -71 55 -83 80 -28 55 -85 112
-135 135 -24 11 -84 24 -134 29 -50 5 -92 10 -93 12 -1 1 -98 139 -217 307
-118 168 -222 316 -230 330 -9 14 -70 183 -136 375 -66 193 -149 434 -185 537
-35 103 -75 203 -88 222 -48 71 -145 113 -236 102 -32 -4 -53 -2 -53 3 0 6
-20 22 -43 36 -59 34 -111 33 -193 -5 l-65 -29 -40 26 c-65 43 -111 41 -205
-6z m159 -49 c21 -13 68 -95 191 -332 145 -279 166 -315 189 -318 54 -7 43 25
-113 324 l-150 289 58 27 c63 31 88 34 127 16 28 -13 40 -36 170 -335 48 -111
93 -204 101 -207 18 -7 41 2 48 19 3 8 -38 111 -90 230 -52 118 -95 221 -97
227 -3 18 41 22 85 9 41 -13 92 -52 109 -83 6 -11 94 -261 195 -555 101 -294
187 -540 191 -546 4 -7 110 -158 236 -336 l229 -324 -15 -81 c-46 -232 -224
-423 -448 -483 -85 -22 -262 -24 -283 -3 -7 8 -118 199 -245 425 l-231 409
-77 18 c-151 36 -347 150 -497 289 l-59 55 36 60 c189 307 144 669 -113 907
l-68 63 27 45 c54 86 134 136 206 127 25 -2 41 -18 98 -103 102 -148 210 -333
284 -483 37 -73 70 -135 75 -138 17 -11 48 8 48 29 0 50 -155 338 -307 571
-46 70 -85 132 -86 138 -3 12 102 68 128 68 11 0 33 -8 48 -18z m-2278 -201
c959 -180 882 -168 1015 -154 63 6 235 24 381 39 146 15 278 24 294 20 15 -4
62 -42 104 -84 116 -117 174 -242 187 -401 10 -130 -35 -281 -117 -396 l-32
-45 -482 0 -481 0 -69 -68 c-120 -117 -268 -203 -457 -267 l-101 -34 -50 85
c-108 180 -269 300 -458 340 -111 24 -259 15 -371 -23 l-86 -29 -36 71 c-44
84 -47 139 -13 205 22 45 22 45 87 52 122 12 575 20 667 11 98 -9 123 -4 123
27 0 41 -30 45 -340 45 -162 0 -339 -3 -392 -8 l-98 -7 0 60 c0 73 19 114 58
128 19 6 143 6 378 -3 366 -14 378 -13 372 29 -4 27 -47 32 -363 40 -132 4
-255 9 -274 12 l-34 5 6 64 c7 76 28 112 69 123 19 5 132 -3 292 -20 143 -16
271 -26 284 -23 15 4 22 13 22 31 0 13 -6 27 -12 29 -7 3 -121 16 -252 30
-131 13 -240 26 -242 28 -10 10 48 85 81 104 55 31 97 29 340 -16z m-292
-1037 c142 -31 277 -118 361 -233 41 -56 96 -162 96 -186 0 -9 -115 -198 -255
-420 l-254 -404 21 -78 c39 -146 27 -417 -27 -599 l-14 -49 -123 0 c-99 -1
-137 -5 -198 -24 -200 -62 -343 -178 -430 -351 -32 -63 -70 -181 -70 -216 0
-23 -3 -24 -59 -24 -103 0 -191 48 -221 121 -11 26 -7 38 53 152 84 159 192
336 281 460 39 54 75 104 81 112 13 20 -6 50 -31 50 -37 0 -222 -272 -369
-543 -43 -78 -81 -142 -84 -142 -4 0 -28 14 -55 30 -56 36 -82 84 -66 125 6
15 90 143 188 285 97 143 186 275 197 294 19 33 19 37 3 52 -9 9 -23 14 -31
11 -13 -5 -99 -126 -307 -429 -40 -60 -76 -108 -80 -108 -13 0 -108 80 -114
96 -21 54 -10 74 169 301 96 122 175 229 175 237 0 20 -31 36 -50 26 -8 -5
-80 -92 -160 -194 -80 -102 -149 -185 -153 -186 -13 0 -47 83 -47 118 0 18 6
47 14 65 7 18 190 223 405 456 l393 424 181 364 182 363 43 17 c113 43 239 53
355 27z m2172 -105 c148 -152 371 -287 550 -334 32 -8 59 -16 60 -17 2 -2 104
-183 229 -403 l225 -400 -15 -50 c-45 -147 -58 -238 -58 -410 0 -128 4 -187
17 -238 l17 -68 -255 -405 c-140 -222 -255 -408 -255 -413 0 -5 -48 -24 -108
-43 -199 -65 -381 -170 -492 -282 l-54 -56 -466 0 -466 0 -54 56 c-136 139
-358 275 -526 323 l-80 24 -228 401 -227 400 26 91 c57 204 69 444 30 608 -16
67 -15 69 7 105 12 20 126 202 253 403 128 201 234 373 238 382 3 10 13 17 21
17 34 0 208 65 300 113 106 54 225 139 291 206 l39 41 466 0 466 0 49 -51z
m2098 -600 c45 -12 110 -67 127 -108 10 -25 8 -36 -21 -92 -88 -177 -260 -457
-355 -580 -24 -32 -44 -67 -44 -78 0 -20 32 -37 49 -26 40 24 239 330 362 556
l74 136 52 -33 c59 -38 73 -58 73 -107 0 -27 -36 -87 -200 -325 -110 -160
-200 -297 -200 -305 0 -20 27 -40 44 -34 8 3 96 125 196 271 100 146 185 266
189 266 14 0 109 -79 115 -96 3 -9 6 -28 6 -44 0 -31 -15 -52 -219 -310 -136
-171 -151 -202 -100 -208 22 -3 43 20 174 188 83 104 153 190 158 190 12 0 47
-81 47 -109 0 -72 -16 -93 -417 -526 l-393 -425 -181 -362 c-100 -200 -182
-364 -184 -366 -11 -13 -137 -46 -206 -55 -164 -21 -343 37 -468 149 -67 61
-140 164 -169 239 l-19 50 257 406 257 406 -20 74 c-16 59 -20 106 -21 234 -1
160 9 239 49 370 l14 50 118 1 c140 0 211 16 333 75 119 58 239 179 298 299
39 80 72 181 72 222 0 15 9 18 58 18 31 0 74 -5 95 -11z m-4354 -1344 c5 -3
116 -194 246 -425 162 -286 243 -420 254 -420 41 0 144 -35 237 -80 107 -52
222 -132 318 -221 l59 -55 -41 -69 c-84 -138 -117 -266 -109 -425 9 -185 65
-307 207 -451 l86 -86 -24 -39 c-55 -88 -121 -133 -194 -134 -34 0 -41 5 -76
53 -106 145 -254 395 -339 572 -42 87 -51 100 -73 100 -42 0 -36 -39 23 -160
69 -140 148 -276 251 -435 45 -69 85 -130 89 -137 5 -8 -13 -23 -54 -44 -57
-28 -66 -30 -100 -20 -21 6 -42 17 -46 24 -4 6 -81 151 -169 322 -155 296
-163 310 -190 310 -19 0 -30 -6 -32 -16 -2 -9 65 -146 147 -305 l150 -289 -57
-27 c-66 -31 -92 -34 -131 -14 -23 13 -46 56 -141 275 -63 143 -119 263 -127
265 -18 7 -40 -2 -47 -19 -3 -8 39 -115 93 -237 88 -201 96 -224 80 -232 -40
-20 -130 19 -171 74 -10 14 -51 122 -92 240 -41 118 -125 362 -187 541 l-112
327 -235 333 -236 333 17 81 c63 308 332 518 640 500 43 -2 82 -7 86 -10z
m2815 -945 c132 -234 353 -370 606 -370 84 0 214 25 283 54 l34 14 33 -65 c44
-84 50 -147 20 -207 -13 -29 -30 -48 -43 -51 -99 -21 -579 -32 -732 -15 -85 8
-105 3 -105 -31 0 -40 31 -44 345 -44 165 0 342 4 393 8 l92 8 0 -65 c0 -58
-3 -69 -29 -98 l-30 -33 -108 2 c-59 2 -221 7 -360 13 -139 5 -259 7 -268 4
-10 -4 -15 -16 -13 -33 3 -24 7 -26 68 -32 36 -4 178 -10 315 -14 138 -3 258
-9 268 -11 32 -10 16 -128 -25 -171 -22 -25 -26 -25 -118 -19 -52 3 -153 13
-225 21 -71 8 -164 16 -205 17 l-75 3 -3 -28 c-2 -16 2 -29 10 -32 7 -2 103
-13 213 -25 301 -30 287 -27 274 -53 -33 -65 -96 -107 -160 -107 -33 0 -760
130 -1080 194 -61 12 -99 10 -454 -26 -213 -22 -397 -37 -409 -34 -36 9 -142
112 -190 184 -25 37 -57 104 -72 147 -24 68 -28 96 -29 190 0 140 32 238 117
363 l29 42 482 0 483 0 59 60 c111 112 280 213 465 276 52 18 97 33 100 33 3
0 23 -31 44 -69z"/>
<path d="M23113 26830 c-51 -11 -121 -30 -155 -43 l-63 -23 -60 19 c-79 25
-246 34 -339 17 -218 -38 -463 -173 -589 -325 -132 -158 -144 -311 -34 -441
18 -21 46 -70 62 -107 16 -38 41 -79 57 -92 36 -30 88 -41 129 -26 18 6 33 11
34 11 2 0 11 -23 21 -52 35 -96 111 -145 186 -119 37 13 40 11 63 -52 10 -26
33 -61 53 -78 33 -29 39 -31 100 -27 l65 4 27 -61 c31 -69 63 -100 115 -109
28 -6 59 3 162 45 l127 52 41 -22 c190 -106 189 -106 304 -106 100 1 111 3
191 38 46 20 94 37 106 37 38 0 99 27 184 80 46 29 114 63 151 76 38 12 106
43 152 68 45 25 112 54 148 65 82 26 154 73 167 110 10 28 -5 82 -26 95 -6 4
-5 23 5 53 24 73 23 254 -1 319 -26 69 -76 136 -134 179 -55 41 -537 287 -665
339 -226 93 -401 116 -584 76z m392 -83 c128 -39 242 -90 529 -235 319 -161
360 -193 395 -306 12 -38 21 -89 21 -114 0 -55 -19 -172 -29 -172 -3 0 -42 25
-86 56 -397 277 -803 484 -1050 535 -147 31 -224 22 -311 -35 -104 -69 -199
-106 -275 -106 -41 0 -135 26 -144 40 -10 16 23 56 96 117 144 120 291 192
479 234 115 26 264 20 375 -14z m-722 -22 c15 -6 11 -12 -27 -34 -74 -43 -201
-148 -260 -216 -31 -35 -56 -66 -56 -69 0 -15 111 -76 164 -92 114 -32 235 -4
386 89 l85 52 85 -1 c179 -2 441 -107 785 -312 200 -120 499 -325 503 -344 5
-26 -114 -79 -191 -85 -104 -9 -146 10 -491 218 -326 197 -356 210 -356 154 0
-20 46 -51 326 -219 179 -108 344 -201 367 -207 39 -10 40 -12 22 -25 -10 -8
-44 -24 -74 -36 -67 -26 -210 -31 -283 -9 -27 7 -148 71 -269 142 -184 106
-225 126 -241 118 -46 -25 -19 -49 197 -176 198 -116 300 -163 351 -163 41 0
35 -18 -13 -42 -40 -19 -64 -23 -143 -23 l-95 0 -163 91 c-146 82 -165 96
-185 134 -32 60 -76 83 -148 76 l-57 -5 -22 54 c-13 31 -38 68 -58 86 -34 30
-39 31 -98 26 l-63 -5 -30 63 c-16 35 -40 71 -54 80 -34 22 -90 30 -127 17
-29 -10 -31 -9 -41 16 -38 102 -74 140 -138 149 -31 4 -72 -9 -235 -77 -217
-91 -210 -90 -245 -16 -43 88 -19 186 72 298 108 131 346 264 535 298 53 10
257 6 285 -5z m-394 -581 c20 -14 61 -91 61 -113 0 -5 -83 -43 -185 -86 -217
-91 -220 -91 -261 1 -14 31 -23 58 -21 60 8 8 354 153 367 153 9 1 26 -6 39
-15z m236 -151 c16 -6 65 -95 65 -119 0 -6 -84 -46 -187 -89 -216 -91 -218
-91 -258 5 -13 30 -22 56 -21 57 8 9 354 151 368 152 9 1 24 -2 33 -6z m258
-170 c23 -26 58 -111 47 -118 -36 -22 -349 -145 -370 -145 -15 0 -34 8 -43 18
-24 26 -51 102 -41 112 17 17 339 148 365 149 14 1 33 -7 42 -16z m239 -155
c16 -13 64 -116 57 -122 -5 -4 -340 -143 -359 -149 -33 -10 -61 13 -86 69 -14
31 -22 59 -19 63 14 14 342 149 366 150 14 1 32 -5 41 -11z m270 -213 c64 -36
121 -65 127 -65 6 0 11 -4 11 -9 0 -14 -84 -24 -150 -18 -44 4 -79 16 -141 50
l-82 45 35 15 c19 8 44 18 56 21 12 4 22 12 22 17 0 5 2 9 4 9 2 0 55 -29 118
-65z"/>
<path d="M39602 20994 c-75 -20 -109 -40 -173 -101 -96 -91 -141 -225 -119
-352 38 -220 202 -350 429 -339 71 3 99 10 154 36 339 158 294 662 -68 756
-72 19 -152 19 -223 0z m223 -138 c90 -42 144 -124 152 -229 6 -77 -8 -131
-51 -194 -47 -69 -116 -103 -207 -103 -85 0 -130 18 -187 73 -76 74 -102 195
-65 303 20 59 101 145 153 161 63 20 150 15 205 -11z"/>
<path d="M40610 20994 c-331 -89 -401 -548 -112 -732 72 -47 150 -65 251 -60
225 11 382 174 382 400 0 120 -36 212 -116 292 -99 99 -260 139 -405 100z
m220 -135 c59 -26 96 -62 128 -124 23 -43 27 -62 27 -135 0 -68 -5 -93 -22
-126 -52 -97 -128 -143 -236 -144 -81 0 -128 18 -180 68 -66 63 -82 104 -82
207 0 74 4 98 22 131 27 51 101 117 145 131 57 18 148 15 198 -8z"/>
<path d="M34407 20994 c-4 -4 -7 -182 -7 -396 l0 -388 275 0 275 0 0 65 0 65
-205 0 -205 0 -2 328 -3 327 -60 3 c-34 2 -64 0 -68 -4z"/>
<path d="M35160 20605 l0 -395 70 0 70 0 -2 393 -3 392 -67 3 -68 3 0 -396z"/>
<path d="M35500 20993 c0 -5 73 -185 162 -401 l161 -393 60 3 60 3 162 392
c89 216 160 395 157 398 -3 3 -36 5 -73 5 l-67 0 -50 -127 c-185 -477 -185
-476 -197 -451 -7 13 -59 142 -115 288 -57 146 -107 271 -113 278 -10 13 -147
18 -147 5z"/>
<path d="M36467 20993 c-4 -3 -7 -181 -7 -395 l0 -388 295 0 295 0 0 60 0 60
-225 0 -225 0 0 105 0 105 195 0 195 0 0 65 0 65 -195 0 -195 0 0 100 0 100
220 0 220 0 0 65 0 65 -283 0 c-156 0 -287 -3 -290 -7z"/>
<path d="M37270 20605 l0 -395 275 0 275 0 0 65 0 65 -205 0 -205 0 -2 328 -3
327 -67 3 -68 3 0 -396z"/>
<path d="M38030 20605 l0 -395 65 0 65 0 0 395 0 395 -65 0 -65 0 0 -395z"/>
<path d="M38437 20994 c-4 -4 -7 -182 -7 -396 l0 -388 70 0 70 0 0 165 0 165
185 0 185 0 0 -165 0 -165 70 0 70 0 0 395 0 396 -67 -3 -68 -3 -3 -162 -2
-163 -185 0 -185 0 -2 163 -3 162 -60 3 c-34 2 -64 0 -68 -4z"/>
<path d="M41360 20606 l0 -396 170 0 c93 0 193 5 222 11 128 27 245 123 289
237 32 80 32 214 1 293 -40 100 -127 180 -240 221 -47 17 -89 21 -249 25
l-193 6 0 -397z m427 231 c87 -45 133 -124 133 -228 0 -34 -5 -79 -12 -100
-16 -55 -73 -118 -132 -145 -44 -21 -66 -24 -163 -24 l-113 0 0 266 0 266 118
-4 c103 -3 123 -7 169 -31z"/>
<path d="M19153 20855 c-188 -58 -307 -257 -274 -457 22 -135 107 -249 229
-306 52 -25 68 -27 177 -27 111 0 124 2 173 27 62 32 132 87 132 103 0 6 -18
28 -40 50 l-40 39 -27 -22 c-16 -13 -52 -34 -82 -49 -118 -57 -256 -23 -328
81 -122 178 -25 423 178 451 64 9 145 -15 205 -61 l47 -36 41 48 c23 26 41 52
41 58 0 15 -91 73 -150 95 -66 25 -214 28 -282 6z"/>
<path d="M20013 20851 c-150 -55 -250 -184 -268 -348 -19 -166 79 -339 233
-411 52 -25 68 -27 177 -27 116 0 123 1 187 33 180 88 269 295 210 489 -36
117 -107 199 -219 251 -78 36 -239 42 -320 13z m270 -138 c92 -51 141 -141
139 -260 -2 -153 -111 -265 -261 -265 -82 -1 -132 19 -189 75 -70 69 -100 187
-72 287 25 90 105 168 193 191 53 13 136 1 190 -28z"/>
<path d="M23759 20856 c-188 -72 -289 -224 -276 -415 7 -100 19 -138 70 -213
81 -121 191 -172 355 -166 86 3 105 7 162 35 36 17 80 47 98 65 l32 34 -36 42
c-19 23 -40 42 -45 42 -5 0 -29 -15 -53 -34 -58 -44 -106 -60 -181 -59 -76 1
-143 31 -190 85 -45 53 -65 116 -65 203 0 237 254 355 442 204 l38 -30 32 37
c18 20 37 43 41 51 13 22 -27 59 -102 96 -60 29 -74 32 -176 34 -74 2 -122 -2
-146 -11z"/>
<path d="M26798 20851 c-110 -44 -202 -132 -238 -229 -78 -207 3 -433 188
-524 59 -29 77 -33 168 -36 122 -5 205 16 297 73 l57 37 0 169 0 169 -170 0
-170 0 0 -60 0 -60 105 0 105 0 0 -67 c0 -38 -4 -73 -8 -80 -13 -20 -95 -52
-154 -59 -188 -22 -331 141 -296 336 33 189 218 280 393 193 28 -13 57 -31 65
-38 14 -12 21 -7 57 38 40 48 41 53 26 69 -9 10 -46 33 -82 51 -61 30 -74 32
-181 35 -94 2 -124 -1 -162 -17z"/>
<path d="M20800 20465 l0 -395 65 0 65 0 2 280 3 280 215 -277 216 -278 62 -3
62 -3 0 396 0 395 -70 0 -70 0 -2 -270 -3 -270 -209 270 -209 270 -63 0 -64 0
0 -395z"/>
<path d="M21750 20465 l0 -395 65 0 65 0 0 276 c0 161 4 274 9 272 5 -1 104
-126 221 -275 l212 -273 59 0 59 0 0 395 0 395 -70 0 -70 0 -2 -269 -3 -268
-208 268 -209 269 -64 0 -64 0 0 -395z"/>
<path d="M22700 20465 l0 -395 295 0 295 0 0 60 0 60 -225 0 -225 0 0 110 0
110 200 0 200 0 0 60 0 60 -200 0 -200 0 0 105 0 105 225 0 225 0 0 60 0 60
-295 0 -295 0 0 -395z"/>
<path d="M24350 20795 l0 -65 125 0 125 0 0 -330 0 -330 70 0 70 0 0 330 0
330 125 0 125 0 0 65 0 65 -320 0 -320 0 0 -65z"/>
<path d="M25210 20465 l0 -395 65 0 65 0 0 395 0 395 -65 0 -65 0 0 -395z"/>
<path d="M25610 20465 l0 -395 70 0 70 0 0 281 0 281 218 -281 217 -281 58 0
57 0 0 395 0 395 -65 0 -65 0 -2 -272 -3 -273 -210 272 -210 272 -67 1 -68 0
0 -395z"/>
<path d="M34425 19456 c-114 -36 -199 -110 -249 -216 -29 -61 -31 -72 -31
-180 0 -109 2 -118 33 -182 77 -158 250 -240 441 -211 75 12 165 48 218 89
l33 25 0 165 0 164 -165 0 -165 0 0 -60 0 -60 100 0 100 0 0 -74 0 -74 -47
-23 c-63 -31 -186 -38 -247 -15 -124 48 -194 206 -152 348 17 59 78 138 126
163 86 45 206 36 290 -20 l48 -33 41 51 c46 56 45 61 -24 101 -88 52 -255 72
-350 42z"/>
<path d="M40837 19460 c-63 -16 -137 -59 -186 -108 -153 -154 -154 -420 0
-573 112 -113 293 -149 452 -89 81 31 175 119 213 202 27 58 29 72 29 178 0
105 -2 120 -28 171 -43 88 -98 143 -184 186 -68 34 -84 37 -167 40 -50 1 -108
-2 -129 -7z m220 -142 c157 -73 202 -302 86 -437 -132 -155 -391 -101 -448 93
-72 242 143 446 362 344z"/>
<path d="M35110 19065 l0 -395 290 0 290 0 0 65 0 65 -225 0 -226 0 3 103 3
102 198 3 197 2 0 60 0 60 -197 2 -198 3 -3 97 -3 98 223 2 223 3 3 63 3 62
-291 0 -290 0 0 -395z"/>
<path d="M35920 19065 l0 -395 65 0 65 0 2 278 3 277 215 -277 215 -278 58 0
57 0 0 395 0 395 -70 0 -70 0 -2 -267 -3 -266 -205 266 -205 266 -62 1 -63 0
0 -395z"/>
<path d="M36860 19065 l0 -395 293 2 292 3 0 60 0 60 -228 3 -228 2 3 103 3
102 198 3 197 2 0 60 0 60 -200 0 -200 0 0 100 0 100 225 0 225 0 0 65 0 65
-290 0 -290 0 0 -395z"/>
<path d="M37670 19065 l0 -395 65 0 65 0 0 140 0 140 88 0 87 0 98 -140 98
-140 81 0 80 0 -18 28 c-10 15 -57 81 -104 148 l-87 120 55 29 c66 35 107 87
123 161 22 97 -19 206 -94 253 -65 40 -139 51 -344 51 l-193 0 0 -395z m425
251 c44 -19 68 -57 69 -111 1 -52 -24 -92 -75 -117 -27 -14 -60 -18 -161 -18
l-128 0 0 130 0 130 130 0 c90 0 141 -4 165 -14z"/>
<path d="M38806 19452 c-11 -18 -336 -766 -336 -774 0 -4 31 -8 68 -8 l68 0
40 95 39 95 188 -2 189 -3 38 -90 38 -90 72 -3 c66 -3 71 -1 66 16 -4 10 -80
187 -170 393 l-164 374 -65 3 c-36 2 -68 -1 -71 -6z m134 -311 c34 -79 59
-145 57 -147 -2 -3 -61 -3 -130 -2 l-125 3 45 105 c73 171 83 193 88 189 2 -3
31 -69 65 -148z"/>
<path d="M39320 19395 l0 -65 125 0 125 0 0 -330 0 -330 70 0 70 0 0 330 0
329 123 3 122 3 0 60 0 60 -317 3 -318 2 0 -65z"/>
<path d="M40170 19065 l0 -395 65 0 65 0 0 395 0 395 -65 0 -65 0 0 -395z"/>
<path d="M41580 19065 l0 -395 65 0 65 0 0 275 c0 151 3 275 8 275 4 -1 102
-123 217 -273 l210 -272 58 -3 57 -3 0 396 0 395 -65 0 -65 0 -2 -271 -3 -271
-209 271 -210 271 -63 0 -63 0 0 -395z"/>
<path d="M5246 19428 c-86 -8 -195 -60 -259 -122 -188 -183 -193 -475 -11
-666 221 -232 630 -164 766 126 117 249 -2 550 -252 639 -61 22 -161 32 -244
23z m187 -163 c54 -22 124 -90 155 -150 24 -44 27 -62 27 -145 0 -84 -3 -102
-28 -152 -34 -69 -101 -131 -164 -152 -208 -71 -413 80 -413 305 0 142 91 270
218 306 57 16 152 10 205 -12z"/>
<path d="M2106 18981 c-108 -247 -196 -452 -196 -455 0 -3 36 -6 79 -6 l79 0
44 105 43 105 216 0 216 0 44 -105 44 -105 84 0 c75 0 82 2 76 18 -3 9 -92
214 -197 455 l-192 437 -72 0 -71 0 -197 -449z m343 77 c39 -92 71 -171 71
-177 0 -7 -51 -11 -150 -11 -82 0 -150 3 -150 6 0 5 139 333 147 347 7 12 4
18 82 -165z"/>
<path d="M8133 19411 c-106 -36 -171 -115 -180 -218 -10 -106 26 -178 111
-227 39 -23 62 -31 256 -90 102 -30 132 -56 134 -115 3 -138 -238 -158 -401
-34 -25 19 -48 31 -52 26 -3 -5 -24 -31 -46 -58 l-40 -48 35 -29 c89 -74 253
-124 373 -114 185 17 287 112 287 267 0 80 -8 105 -51 154 -43 48 -104 78
-241 116 -169 47 -208 73 -208 139 0 122 187 149 344 50 26 -17 49 -30 50 -28
1 2 19 27 40 56 21 29 36 58 33 65 -7 20 -117 75 -182 92 -80 20 -197 19 -262
-4z"/>
<path d="M9920 19353 c-18 -43 -50 -116 -71 -163 -165 -376 -289 -662 -289
-666 0 -3 36 -4 81 -2 l81 3 42 100 43 100 217 0 218 0 42 -100 42 -100 83 -3
c78 -3 82 -2 76 17 -3 11 -91 215 -195 453 l-189 433 -74 3 -73 3 -34 -78z
m180 -293 c40 -91 74 -171 77 -177 4 -10 -30 -13 -152 -13 -146 0 -157 1 -150
18 20 53 148 342 150 340 2 -2 36 -77 75 -168z"/>
<path d="M12258 19411 c-151 -50 -272 -180 -307 -332 -13 -56 -13 -172 0 -228
57 -248 315 -398 578 -336 163 39 294 166 337 329 31 115 11 267 -49 368 -38
65 -128 145 -204 181 -63 29 -77 32 -183 34 -91 2 -127 -1 -172 -16z m286
-155 c188 -92 231 -370 82 -519 -55 -55 -110 -79 -192 -85 -103 -7 -163 16
-235 87 -68 68 -92 131 -92 238 1 146 93 268 228 304 55 15 151 3 209 -25z"/>
<path d="M3070 18970 l0 -450 75 0 75 0 0 180 0 180 230 0 230 0 0 75 0 75
-230 0 -231 0 3 123 3 122 258 3 257 2 0 70 0 70 -335 0 -335 0 0 -450z"/>
<path d="M3980 18970 l0 -450 80 0 80 0 0 180 0 180 225 0 225 0 0 75 0 75
-225 0 -225 0 0 125 0 125 255 0 255 0 0 70 0 70 -335 0 -335 0 0 -450z"/>
<path d="M6050 18971 l0 -451 75 0 75 0 0 155 0 155 103 0 102 0 108 -155 109
-155 95 0 95 0 -35 48 c-19 26 -73 101 -119 167 l-85 120 58 28 c100 48 148
126 149 241 0 99 -16 143 -75 202 -81 81 -106 87 -402 92 l-253 4 0 -451z
m491 281 c55 -27 79 -66 79 -127 0 -60 -28 -107 -78 -131 -30 -16 -66 -20
-189 -22 l-153 -3 0 149 c0 82 3 152 8 156 4 5 71 6 148 4 118 -4 149 -9 185
-26z"/>
<path d="M7040 18970 l0 -450 340 0 340 0 0 70 0 70 -260 0 -260 0 0 120 0
120 230 0 230 0 0 70 0 70 -230 0 -230 0 0 120 0 120 255 0 255 0 0 70 0 70
-335 0 -335 0 0 -450z"/>
<path d="M8780 19345 l0 -75 145 0 145 0 0 -375 0 -375 80 0 80 0 0 375 0 374
143 3 142 3 3 73 3 72 -371 0 -370 0 0 -75z"/>
<path d="M10540 19345 l0 -75 140 0 140 0 0 -375 0 -375 80 0 80 0 0 375 0
375 145 0 145 0 0 75 0 75 -365 0 -365 0 0 -75z"/>
<path d="M11510 18970 l0 -450 80 0 80 0 0 450 0 450 -80 0 -80 0 0 -450z"/>
<path d="M13140 18970 l0 -450 80 0 80 0 2 314 3 314 243 -314 244 -314 69 0
69 0 0 450 0 450 -80 0 -80 0 0 -311 0 -312 -241 312 -241 311 -74 0 -74 0 0
-450z"/>
<path d="M18935 19306 c-115 -36 -199 -109 -248 -214 -58 -124 -48 -290 25
-404 110 -174 340 -234 533 -139 33 17 75 45 92 63 l33 34 -44 43 -44 43 -46
-36 c-47 -36 -128 -66 -176 -66 -55 0 -132 31 -175 71 -146 135 -106 401 71
475 81 34 206 12 288 -51 l34 -26 41 47 c22 26 41 51 41 55 0 19 -98 80 -159
99 -73 23 -203 26 -266 6z"/>
<path d="M19792 19301 c-29 -11 -68 -29 -86 -40 -53 -33 -125 -117 -154 -179
-24 -51 -27 -69 -27 -168 0 -107 1 -112 38 -186 171 -346 693 -277 773 103 39
185 -46 363 -213 446 -71 35 -84 38 -177 40 -81 3 -112 -1 -154 -16z m241
-126 c132 -55 201 -226 148 -366 -42 -110 -135 -174 -251 -173 -76 1 -123 19
-178 68 -56 51 -86 124 -86 211 0 117 53 206 149 254 50 25 166 28 218 6z"/>
<path d="M27097 19306 c-98 -36 -167 -121 -167 -209 0 -129 71 -196 255 -242
92 -22 163 -53 175 -76 14 -25 12 -81 -3 -100 -54 -71 -204 -63 -323 15 l-53
35 -40 -46 c-22 -26 -38 -50 -35 -55 3 -4 26 -22 51 -39 155 -107 399 -107
496 0 45 50 60 98 55 177 -3 52 -9 70 -34 101 -39 48 -113 85 -222 113 -97 24
-157 52 -172 79 -31 59 14 124 92 136 54 8 141 -14 199 -51 21 -13 41 -24 43
-24 2 0 21 23 41 51 29 41 34 54 23 61 -92 62 -176 88 -278 88 -36 -1 -82 -7
-103 -14z"/>
<path d="M20570 18915 l0 -395 70 0 70 0 2 276 3 277 122 -183 121 -182 126
188 126 189 0 -283 0 -282 70 0 70 0 0 395 0 395 -74 0 -74 0 -118 -185 c-66
-101 -121 -184 -124 -184 -3 0 -57 82 -121 182 l-116 182 -76 3 -77 3 0 -396z"/>
<path d="M21610 18915 l0 -395 70 0 70 0 2 276 3 277 122 -183 121 -182 126
188 126 189 0 -283 0 -282 70 0 70 0 0 395 0 395 -74 0 -74 0 -119 -185 c-65
-101 -120 -185 -123 -184 -3 0 -57 82 -121 182 l-116 182 -77 3 -76 3 0 -396z"/>
<path d="M22642 19023 l3 -288 28 -57 c55 -113 157 -170 301 -170 116 0 179
23 245 90 89 89 94 112 99 440 l4 272 -70 0 -71 0 -3 -267 c-3 -255 -4 -270
-25 -310 -28 -51 -66 -79 -128 -93 -103 -23 -191 20 -230 112 -12 31 -15 85
-15 298 l0 260 -71 0 -70 0 3 -287z"/>
<path d="M23560 18915 l0 -395 70 0 70 0 2 278 3 277 215 -277 215 -278 63 0
62 0 0 395 0 395 -70 0 -70 0 -2 -272 -3 -272 -210 272 -210 271 -67 1 -68 0
0 -395z"/>
<path d="M24520 18915 l0 -395 70 0 70 0 0 395 0 395 -70 0 -70 0 0 -395z"/>
<path d="M24870 19245 l0 -65 130 0 130 0 0 -330 0 -330 70 0 70 0 0 330 0
330 125 0 125 0 0 65 0 65 -325 0 -325 0 0 -65z"/>
<path d="M25730 18915 l0 -395 70 0 70 0 0 395 0 395 -70 0 -70 0 0 -395z"/>
<path d="M26140 18915 l0 -395 295 0 295 0 0 60 0 60 -225 0 -225 0 0 105 0
105 195 0 195 0 0 65 0 65 -195 0 -195 0 0 105 0 105 220 0 220 0 0 60 0 60
-290 0 -290 0 0 -395z"/>
<path d="M7545 14293 c-27 -2 -121 -12 -208 -23 -1643 -206 -2991 -1455 -3326
-3082 -132 -641 -103 -1301 85 -1931 266 -891 876 -1687 1674 -2185 487 -304
992 -483 1590 -564 222 -30 708 -32 925 -4 486 62 891 181 1292 381 1082 539
1859 1548 2097 2726 87 427 100 916 36 1356 -132 905 -592 1751 -1280 2356
-321 282 -659 496 -1045 664 -89 39 -291 115 -345 131 -19 5 -75 22 -125 36
-208 62 -504 115 -750 136 -110 9 -502 11 -620 3z m666 -78 c779 -78 1485
-372 2086 -870 148 -122 378 -354 505 -507 415 -503 691 -1089 812 -1723 50
-263 61 -388 61 -720 0 -324 -6 -404 -51 -665 -176 -1030 -776 -1949 -1656
-2538 -1063 -711 -2434 -841 -3617 -343 -781 329 -1453 930 -1866 1670 -246
442 -393 897 -461 1436 -25 196 -26 672 -1 870 45 363 120 661 244 975 267
675 708 1248 1298 1686 547 406 1196 656 1895 729 178 18 565 18 751 0z"/>
<path d="M7559 14019 c-834 -64 -1618 -415 -2228 -995 -980 -933 -1360 -2334
-986 -3640 218 -760 680 -1428 1320 -1909 1185 -888 2809 -963 4075 -187 383
235 738 558 1018 928 304 403 529 896 637 1397 159 740 86 1517 -207 2206
-409 962 -1246 1724 -2243 2041 -428 136 -934 194 -1386 159z m591 -74 c626
-55 1189 -258 1715 -616 337 -229 696 -591 931 -939 809 -1197 817 -2765 21
-3965 -147 -222 -265 -364 -466 -565 -217 -216 -459 -403 -723 -558 l-88 -52
0 168 c0 165 -14 302 -46 477 l-17 90 85 130 c165 253 257 419 314 565 31 81
38 112 44 210 6 77 22 171 49 287 93 386 91 576 -8 774 -125 250 -485 490
-987 658 l-144 48 -41 59 c-57 82 -117 142 -150 149 -24 5 -79 -4 -125 -22
-11 -4 -14 10 -14 78 0 81 1 85 36 129 54 68 110 168 130 232 14 48 22 58 44
63 44 10 76 54 110 152 27 78 37 95 65 112 22 13 42 39 61 79 21 45 33 59 44
55 8 -4 42 -8 75 -10 47 -3 67 1 92 16 44 28 75 92 81 171 4 62 7 67 55 115
97 96 125 208 89 350 -11 44 -23 109 -26 145 -8 83 -47 230 -88 328 -62 150
-196 317 -337 422 -148 109 -396 204 -586 225 -35 4 -87 19 -125 38 -81 39
-178 48 -244 23 -47 -18 -114 -79 -140 -128 l-18 -33 -118 4 c-133 4 -194 -9
-295 -62 -76 -41 -190 -155 -235 -236 -43 -78 -60 -96 -135 -141 -93 -56 -189
-156 -226 -233 -56 -121 -49 -227 23 -347 l34 -55 -38 -50 c-66 -86 -82 -180
-42 -256 21 -41 99 -105 159 -130 36 -15 55 -29 59 -43 9 -37 74 -103 118
-120 25 -11 62 -16 92 -15 l51 3 6 -74 c4 -55 22 -121 66 -245 33 -93 58 -176
55 -183 -7 -21 6 -58 31 -89 12 -15 33 -55 46 -88 32 -81 90 -196 109 -217 11
-14 13 -31 9 -74 -8 -75 -16 -82 -63 -50 -21 14 -43 26 -48 26 -14 0 -173
-139 -228 -199 -71 -79 -124 -163 -137 -219 -12 -46 -16 -50 -119 -119 -126
-84 -240 -146 -300 -164 -38 -11 -47 -20 -79 -78 -96 -176 -133 -232 -201
-303 -81 -86 -119 -157 -129 -239 -5 -42 -17 -67 -61 -128 -71 -98 -103 -169
-112 -245 -3 -35 -18 -83 -33 -113 -40 -77 -209 -328 -334 -494 -150 -198
-240 -358 -314 -553 l-34 -89 -114 119 c-562 587 -897 1301 -987 2099 -34 303
-19 714 37 1028 174 973 773 1856 1621 2387 134 84 433 235 573 289 528 205
1077 285 1625 236z m19 -458 c30 -12 58 -29 62 -37 4 -8 22 -69 40 -135 100
-376 327 -944 514 -1290 74 -135 71 -129 49 -117 -11 5 -46 13 -79 17 -212 24
-353 112 -427 264 -20 40 -51 83 -80 109 -109 100 -253 478 -343 904 -32 150
-31 166 4 218 60 89 150 112 260 67z m266 -68 c331 -68 607 -264 739 -526 62
-122 116 -311 116 -406 l0 -30 -62 7 c-226 23 -463 132 -612 282 -96 95 -151
185 -197 321 -37 111 -109 353 -109 367 0 7 38 2 125 -15z m-657 -85 c28 -6
31 -11 41 -68 44 -228 145 -580 218 -753 30 -69 86 -173 120 -222 l17 -23 -54
7 c-67 8 -211 55 -282 91 -143 72 -339 235 -463 383 -109 131 -185 244 -178
266 11 40 95 155 145 200 54 49 125 89 193 111 42 13 191 18 243 8z m-541
-525 c181 -242 427 -451 625 -531 29 -12 56 -24 61 -28 10 -8 -432 -40 -554
-40 -108 0 -185 12 -279 42 -55 18 -75 31 -128 86 -85 90 -117 156 -117 247 0
55 6 81 25 119 36 71 100 138 188 197 l77 51 15 -23 c8 -13 47 -67 87 -120z
m1449 -214 c77 -57 196 -116 297 -149 85 -28 230 -56 289 -56 35 0 38 -2 49
-42 25 -93 -6 -194 -84 -269 l-42 -41 -80 5 c-138 8 -265 74 -340 177 -35 47
-102 188 -186 388 l-39 94 38 -31 c20 -17 64 -52 98 -76z m-1666 -389 c67 -30
150 -53 232 -62 58 -7 60 -8 40 -23 -11 -9 -29 -34 -40 -57 -38 -76 -115 -124
-197 -124 -41 0 -133 44 -172 82 -64 61 -64 132 -2 218 l31 42 26 -25 c15 -14
52 -37 82 -51z m1250 -62 c90 -161 243 -259 443 -284 43 -5 83 -13 89 -16 34
-21 -41 -368 -90 -416 -18 -19 -21 -19 -50 -4 -41 21 -42 21 -42 -12 0 -110
-79 -259 -205 -388 -153 -156 -263 -212 -438 -221 -111 -6 -230 13 -307 50
-39 19 -49 32 -87 107 -23 47 -42 92 -43 101 0 12 13 18 46 23 61 8 174 69
239 128 l52 48 37 -35 c91 -86 208 -144 289 -145 91 0 159 54 161 129 1 39 -7
42 -66 26 -24 -6 -30 -3 -45 25 -55 102 -112 128 -246 115 -103 -10 -148 -10
-268 0 -89 7 -100 6 -143 -15 -33 -16 -54 -35 -73 -68 -31 -54 -45 -66 -54
-49 -4 7 -37 100 -73 207 l-66 195 0 208 0 208 61 38 c68 43 3 35 604 81 127
10 233 18 237 19 3 0 20 -24 38 -55z m754 -159 c33 -8 80 -15 104 -15 42 0 42
0 42 -38 0 -21 -10 -58 -22 -82 -20 -39 -28 -45 -58 -48 -19 -2 -52 1 -72 7
-39 12 -37 10 -144 198 l-24 42 56 -25 c31 -14 84 -31 118 -39z m-1754 -105
c0 -61 -3 -71 -21 -81 -36 -19 -106 -5 -140 27 -16 15 -29 30 -29 33 0 3 27
14 59 23 33 10 72 29 88 43 15 13 31 25 36 25 4 0 7 -31 7 -70z m1639 -89 c0
-9 -7 -32 -14 -51 -13 -35 -13 -35 -14 35 0 64 1 68 14 51 8 -11 15 -27 14
-35z m-1120 -490 c24 -6 23 -8 -24 -49 -80 -70 -200 -117 -251 -98 -15 6 -13
10 12 25 16 10 38 37 49 60 10 23 30 49 44 56 27 15 127 18 170 6z m363 -21
c11 -14 29 -41 41 -60 13 -19 33 -40 45 -46 12 -6 19 -14 15 -17 -14 -15 -86
-6 -140 18 -57 26 -163 100 -163 116 0 12 39 17 114 15 60 -2 71 -5 88 -26z
m277 -417 l0 -68 -59 -38 c-32 -21 -105 -75 -162 -120 -57 -45 -135 -103 -174
-130 -39 -26 -111 -89 -160 -140 -131 -135 -208 -243 -369 -512 l-24 -40 -1
75 c0 100 17 232 37 281 10 27 35 55 75 86 89 68 118 113 118 182 0 43 -7 67
-29 106 -16 28 -36 56 -44 63 -12 10 -12 19 4 64 10 29 18 66 19 82 0 23 3 27
18 21 59 -23 140 -38 233 -42 173 -9 326 41 455 147 33 27 60 49 62 49 1 1 2
-29 1 -66z m249 -119 c27 -30 57 -70 67 -88 l18 -33 -98 -189 c-53 -104 -98
-190 -99 -192 -2 -1 -59 53 -127 121 -68 67 -145 136 -171 152 -27 17 -48 33
-48 38 0 4 48 43 108 87 106 80 248 160 282 160 10 0 41 -25 68 -56z m-1102
-176 c40 -43 64 -93 64 -132 0 -42 -20 -66 -140 -166 -94 -79 -119 -114 -154
-215 -6 -16 -17 -1 -56 74 -26 51 -62 107 -79 125 -17 18 -31 38 -31 44 0 47
108 184 226 287 l75 66 37 -30 c20 -16 47 -40 58 -53z m1340 -14 c136 -44 324
-121 448 -184 464 -235 638 -484 598 -858 -7 -59 -28 -174 -47 -257 -53 -221
-65 -292 -65 -368 0 -82 -29 -176 -95 -307 -83 -165 -256 -444 -398 -642 -37
-52 -57 -90 -62 -120 -10 -60 -69 -208 -123 -303 -66 -117 -161 -253 -278
-395 -150 -182 -152 -184 -264 -209 -240 -53 -442 -77 -730 -87 -216 -8 -211
-10 -218 102 -8 148 43 342 162 609 72 161 83 205 67 249 -10 26 -6 38 45 130
136 245 272 421 413 536 l43 35 68 233 c107 362 204 663 272 845 33 87 38 110
28 122 -7 8 -21 15 -31 15 -22 0 -29 -15 -110 -245 -33 -93 -62 -171 -63 -173
-6 -5 -190 20 -326 44 -178 32 -344 84 -411 130 -49 33 -54 34 -66 18 -24 -33
-182 -350 -222 -446 -95 -231 -147 -440 -139 -565 6 -92 43 -170 96 -205 62
-41 298 -149 399 -182 l51 -17 -57 -101 -58 -102 -90 -22 c-49 -12 -109 -32
-134 -44 -40 -21 -62 -23 -235 -28 -117 -2 -210 0 -241 6 -40 9 -543 239 -561
257 -3 3 22 32 56 65 72 71 116 154 110 202 -3 18 -19 101 -36 183 -97 467
-92 826 14 987 30 47 31 74 2 84 -27 8 -50 -17 -89 -101 -47 -101 -62 -198
-63 -395 0 -222 23 -407 80 -659 25 -110 26 -114 9 -152 -39 -86 -167 -186
-302 -237 -55 -20 -71 -31 -67 -42 19 -44 34 -121 34 -173 l0 -59 -34 30 c-19
16 -61 40 -93 53 -51 21 -74 23 -193 23 -151 -1 -240 -20 -424 -89 -90 -34
-100 -35 -114 -21 -15 15 -14 22 8 89 13 39 61 146 107 237 67 134 108 198
213 339 265 355 380 545 380 630 0 61 48 159 124 254 49 62 53 72 49 107 -8
57 34 141 111 220 74 76 104 119 176 254 45 84 58 100 89 113 87 34 167 79
287 158 71 47 134 83 141 81 15 -6 71 -104 113 -199 19 -43 43 -83 54 -89 24
-13 66 5 67 29 0 10 6 36 12 57 10 32 11 8 9 -145 l-3 -184 -49 -170 c-156
-545 -249 -942 -234 -1002 5 -19 12 -23 33 -21 24 3 26 8 38 83 22 154 100
468 212 857 64 224 110 326 241 536 146 234 339 451 456 514 l50 27 50 -28
c59 -34 214 -179 304 -285 35 -41 67 -72 71 -68 4 4 51 95 105 202 109 217
132 260 144 260 4 0 43 -12 86 -26z m-1052 -1192 c112 -51 305 -99 511 -127
66 -9 134 -19 151 -21 l32 -4 -35 -108 c-19 -59 -65 -213 -103 -342 -67 -227
-71 -236 -107 -265 -79 -63 -185 -180 -249 -276 -57 -83 -71 -98 -88 -93 -60
18 -239 93 -337 143 -97 48 -116 61 -132 94 -70 138 6 441 216 865 44 89 83
161 86 159 3 -1 28 -13 55 -25z m-1092 -1508 c144 -70 281 -133 303 -141 27
-11 94 -17 208 -21 92 -2 167 -7 167 -9 0 -3 -20 -28 -45 -55 -56 -62 -118
-187 -147 -293 -18 -68 -21 -108 -21 -271 l-1 -190 -70 13 c-92 17 -264 59
-298 72 -52 20 -226 278 -336 497 -88 176 -132 291 -132 348 0 28 -4 68 -9 89
l-9 38 51 24 c29 13 57 24 64 24 6 1 130 -56 275 -125z m2672 -90 c38 -257 39
-532 2 -559 -54 -40 -517 -225 -562 -225 -9 0 10 29 47 72 217 252 387 542
430 736 12 55 50 117 60 99 4 -7 14 -62 23 -123z m-1599 -7 c7 -26 -5 -58 -89
-249 -104 -237 -153 -440 -143 -594 l5 -85 -67 6 c-36 3 -103 11 -148 16 l-82
11 -8 36 c-5 21 -8 107 -7 192 2 251 50 388 183 521 82 82 161 127 267 153 80
19 83 19 89 -7z m-1657 -17 c32 -14 69 -41 96 -71 24 -26 55 -51 70 -55 23 -5
36 -26 85 -129 66 -138 148 -282 228 -399 29 -43 52 -80 51 -82 -5 -5 -230 82
-347 135 -145 65 -341 172 -478 263 -106 70 -298 211 -306 225 -3 5 -1 18 4
30 9 24 108 60 259 94 117 26 264 21 338 -11z"/>
<path d="M22960 14139 c-822 -32 -1593 -323 -2265 -856 -139 -110 -454 -423
-571 -568 -513 -635 -802 -1360 -865 -2175 -13 -170 -7 -554 11 -705 109 -927
499 -1724 1156 -2365 498 -486 1104 -824 1769 -989 898 -222 1863 -118 2676
289 919 461 1629 1272 1952 2230 89 263 147 525 183 820 25 205 26 668 1 870
-58 472 -172 864 -367 1265 -193 397 -429 725 -754 1050 -325 324 -638 549
-1040 746 -469 230 -1006 369 -1491 385 -82 2 -166 6 -185 7 -19 1 -114 -1
-210 -4z m375 -69 c954 -57 1790 -420 2459 -1070 658 -640 1046 -1435 1148
-2355 17 -157 17 -623 0 -780 -85 -763 -365 -1435 -846 -2030 -121 -149 -403
-429 -556 -551 -599 -478 -1251 -746 -2020 -830 -176 -19 -556 -21 -725 -4
-778 78 -1446 348 -2045 824 -154 122 -466 433 -584 581 -184 231 -306 421
-435 675 -275 542 -411 1112 -411 1724 0 782 223 1506 664 2156 162 240 430
539 661 739 631 546 1434 872 2261 920 215 12 241 12 429 1z"/>
<path d="M22764 13855 c-506 -58 -962 -202 -1384 -437 -943 -527 -1609 -1454
-1799 -2503 -75 -419 -80 -801 -15 -1222 153 -997 719 -1880 1569 -2450 470
-316 1010 -513 1600 -585 166 -20 684 -17 845 6 610 84 1108 271 1590 597 875
592 1442 1530 1566 2594 23 195 23 600 0 798 -83 725 -361 1373 -824 1927
-320 382 -711 689 -1167 915 -376 187 -713 290 -1145 351 -161 22 -671 28
-836 9z m831 -80 c66 -9 185 -29 265 -46 1044 -211 1951 -903 2441 -1863 l61
-118 -69 6 c-37 4 -255 20 -483 37 -700 50 -759 50 -1785 -6 -1671 -90 -2279
-111 -2807 -94 -312 9 -392 17 -598 59 -191 39 -354 60 -522 67 -76 3 -138 10
-138 14 0 5 25 54 55 109 341 624 852 1129 1476 1459 415 219 875 351 1369
395 116 10 620 -3 735 -19z m2225 -2054 c234 -18 458 -35 499 -39 l75 -7 36
-91 c56 -137 108 -294 146 -442 57 -220 110 -572 87 -572 -5 0 -51 9 -103 21
-235 51 -404 61 -1357 79 -527 10 -677 19 -1023 60 -225 27 -367 56 -416 85
-48 28 -110 39 -324 60 -303 28 -1264 75 -1551 75 -71 0 -129 4 -129 9 0 21
100 95 185 137 100 49 289 100 495 134 229 38 272 54 675 248 138 66 295 134
350 152 204 65 261 71 1180 119 294 16 709 6 1175 -28z m-5465 4 c66 -9 172
-27 235 -41 235 -51 310 -56 873 -61 532 -5 975 7 1627 42 146 8 272 15 280
15 8 0 -30 -20 -85 -44 -55 -24 -154 -70 -220 -103 -161 -81 -326 -156 -402
-182 -35 -11 -138 -34 -230 -51 -358 -64 -556 -134 -674 -239 l-55 -49 -235
-22 c-173 -16 -340 -23 -639 -27 l-405 -5 -175 85 c-202 99 -321 149 -437 186
l-82 26 43 130 c42 126 103 280 133 339 l15 29 157 -6 c86 -3 210 -13 276 -22z
m-405 -622 c154 -64 422 -195 519 -255 36 -23 120 -72 186 -111 150 -87 230
-142 250 -173 15 -23 14 -25 -12 -35 -42 -16 -292 -46 -533 -63 -209 -16 -703
-46 -747 -46 -25 0 -24 -22 -2 205 13 140 41 310 75 452 l26 111 52 -15 c28
-8 112 -40 186 -70z m1715 -184 c11 -32 46 -39 208 -39 361 0 1381 -52 1671
-85 95 -11 144 -22 182 -40 97 -46 250 -74 629 -115 211 -23 520 -36 1255 -50
294 -6 582 -15 639 -21 101 -9 300 -45 388 -68 l41 -11 7 -98 c19 -244 -22
-660 -95 -969 -42 -176 -172 -562 -191 -565 -2 0 -40 8 -84 18 -64 15 -117 19
-260 18 -262 -1 -530 -33 -1175 -141 -473 -79 -511 -81 -745 -34 -247 50 -738
165 -965 226 -303 82 -413 86 -1200 39 -151 -9 -403 -16 -560 -16 -304 0 -331
3 -475 55 -168 61 -504 101 -965 116 l-204 6 -19 60 c-92 303 -143 615 -154
953 -6 188 -6 192 14 192 11 0 139 7 284 15 626 35 975 72 1049 110 75 39 54
119 -53 199 -34 25 -122 80 -194 121 -73 42 -135 81 -139 86 -3 5 84 9 213 9
239 0 526 14 728 34 72 7 138 14 147 15 9 0 20 -8 23 -20z m-1500 -1859 c380
-20 638 -57 770 -109 118 -47 193 -56 485 -54 146 0 389 8 540 17 750 45 908
41 1140 -23 309 -85 857 -211 1115 -256 182 -32 175 -33 645 45 681 113 925
142 1190 143 173 1 272 -9 308 -32 11 -6 1 -33 -42 -118 -414 -827 -1142
-1468 -2005 -1767 -390 -135 -752 -196 -1171 -196 -365 0 -662 43 -1015 145
-1042 303 -1918 1117 -2306 2143 l-27 72 92 0 c50 0 177 -5 281 -10z"/>
<path d="M22864 13434 c-649 -78 -1259 -400 -1710 -903 -58 -64 -103 -122
-102 -130 2 -8 36 -31 75 -52 249 -126 519 -83 799 128 102 77 186 129 241
152 32 13 32 13 99 -58 51 -55 85 -81 148 -112 126 -62 204 -72 476 -62 590
22 743 3 1087 -131 76 -29 161 -61 188 -69 197 -62 399 -43 611 57 131 62 232
135 349 250 l100 99 -60 54 c-194 178 -520 386 -820 524 -472 218 -1012 310
-1481 253z m576 -69 c473 -55 928 -229 1365 -521 118 -79 315 -232 315 -244 0
-16 -157 -153 -235 -205 -94 -63 -190 -108 -295 -138 -58 -17 -102 -22 -195
-22 -138 0 -156 5 -405 100 -300 115 -514 152 -810 141 -490 -19 -503 -19
-588 -3 -46 9 -108 27 -138 41 -58 27 -190 144 -177 157 29 28 322 89 528 110
139 14 550 18 777 6 150 -7 157 -7 167 12 20 37 -8 48 -146 57 -188 13 -649
10 -793 -4 -414 -42 -665 -125 -890 -293 -201 -150 -314 -200 -471 -207 -53
-2 -120 1 -148 7 -61 13 -151 50 -151 62 0 14 263 274 350 346 208 171 440
313 673 412 252 106 449 156 772 194 83 10 384 5 495 -8z"/>
<path d="M23022 10458 c-431 -423 -506 -764 -223 -1020 111 -100 268 -158 385
-143 115 16 225 73 317 165 124 122 170 265 138 422 -15 77 -97 240 -170 338
-68 92 -307 340 -329 340 -7 0 -60 -46 -118 -102z m214 -80 c273 -278 381
-503 329 -684 -44 -155 -198 -292 -367 -325 -113 -23 -251 28 -364 133 -227
213 -163 496 194 861 58 59 108 107 112 107 3 0 46 -42 96 -92z"/>
<path d="M20590 10073 c-55 -7 -103 -25 -162 -61 -41 -24 -79 -39 -112 -42
-52 -5 -74 -25 -62 -55 10 -28 120 -16 183 20 109 63 127 70 189 69 49 0 71
-7 120 -34 119 -66 135 -73 203 -78 81 -5 122 6 211 59 108 64 197 63 304 -4
69 -44 97 -55 154 -63 37 -5 51 -2 61 10 23 28 5 53 -44 58 -44 5 -68 16 -180
79 -55 31 -67 34 -145 34 -68 0 -93 -4 -125 -22 -149 -80 -157 -83 -215 -83
-45 0 -69 6 -111 30 -132 73 -197 93 -269 83z"/>
<path d="M25562 10070 c-34 -5 -76 -22 -120 -49 -91 -55 -123 -65 -193 -58
-46 4 -75 15 -127 45 -141 85 -238 83 -387 -6 -43 -27 -86 -44 -117 -48 -57
-8 -78 -32 -51 -59 31 -32 112 -9 248 71 42 25 61 29 120 29 59 0 78 -4 120
-29 118 -69 125 -71 220 -71 81 0 95 3 140 29 120 70 148 81 211 80 51 0 71
-6 130 -40 93 -53 120 -62 180 -63 47 -1 64 8 64 34 0 16 -38 35 -69 35 -24 0
-58 11 -92 30 -125 71 -177 84 -277 70z"/>
<path d="M21220 9768 c-19 -5 -64 -27 -100 -49 -41 -24 -85 -41 -119 -46 -61
-9 -84 -31 -61 -58 12 -14 25 -16 68 -12 53 6 81 17 177 73 43 25 60 29 125
29 71 0 80 -3 145 -42 97 -58 120 -66 205 -66 78 0 83 1 224 77 38 20 64 26
111 26 63 0 82 -7 198 -74 31 -18 68 -30 106 -33 52 -5 60 -3 70 15 15 28 -9
52 -52 52 -32 0 -91 26 -176 77 -35 21 -61 27 -122 31 -89 5 -128 -5 -216 -58
-106 -64 -195 -62 -301 7 -93 60 -191 77 -282 51z"/>
<path d="M24855 9771 c-35 -9 -59 -21 -139 -69 -51 -32 -66 -36 -125 -36 -41
0 -77 6 -96 16 -16 8 -61 32 -98 52 -61 32 -77 36 -141 36 -87 0 -120 -10
-204 -63 -42 -26 -79 -41 -114 -46 -53 -6 -76 -26 -65 -55 5 -12 19 -16 54
-16 47 0 79 13 213 86 34 18 59 24 107 24 57 0 74 -5 162 -52 94 -48 104 -51
174 -51 82 0 116 10 192 58 28 18 68 38 89 45 51 17 134 8 182 -18 130 -73
217 -98 249 -72 25 21 18 49 -12 55 -83 16 -115 27 -179 65 -63 36 -81 42
-145 45 -41 2 -87 1 -104 -4z"/>
<path d="M21728 8365 c-154 -29 -323 -107 -463 -214 -71 -54 -228 -209 -223
-221 6 -15 181 -160 278 -230 454 -327 961 -532 1468 -595 157 -20 475 -19
627 1 561 73 1055 306 1492 702 114 103 303 308 303 328 0 18 -156 91 -230
109 -209 48 -422 -15 -667 -199 -62 -47 -145 -101 -184 -120 l-71 -36 -35 45
c-44 58 -117 116 -187 149 -128 61 -234 68 -706 52 -400 -14 -521 8 -922 163
-58 22 -132 48 -165 56 -85 23 -224 27 -315 10z m307 -81 c33 -9 134 -45 226
-80 328 -125 483 -150 859 -138 140 5 316 9 390 8 211 -1 312 -36 425 -148
l60 -60 -73 -23 c-90 -28 -232 -57 -382 -78 -154 -21 -616 -30 -840 -16 -152
9 -177 9 -190 -4 -26 -26 0 -49 66 -59 99 -15 783 -13 909 2 413 51 639 129
867 300 186 139 339 202 491 202 76 0 170 -21 229 -51 l39 -20 -51 -59 c-28
-33 -97 -102 -152 -155 -364 -346 -802 -586 -1258 -689 -191 -44 -270 -51
-550 -51 -243 0 -291 3 -410 23 -469 82 -908 269 -1320 563 -115 82 -230 176
-230 188 0 14 128 129 205 183 122 87 277 154 407 177 70 13 208 6 283 -15z"/>
<path d="M38049 14079 c-809 -55 -1548 -344 -2188 -857 -122 -98 -387 -356
-504 -492 -395 -457 -692 -1037 -831 -1626 -87 -369 -123 -804 -96 -1165 74
-986 473 -1845 1171 -2524 610 -593 1362 -956 2219 -1070 166 -23 632 -31 811
-16 632 55 1215 249 1737 577 852 536 1464 1376 1708 2345 76 301 114 619 114
948 0 233 -10 372 -40 576 -149 996 -664 1876 -1465 2500 -742 578 -1693 868
-2636 804z m676 -84 c885 -104 1652 -472 2271 -1090 315 -315 525 -604 723
-995 194 -383 315 -781 378 -1246 25 -185 25 -743 0 -929 -23 -173 -69 -401
-112 -557 -363 -1313 -1429 -2353 -2748 -2678 -324 -80 -588 -111 -932 -111
-337 0 -604 31 -914 107 -528 129 -1035 380 -1470 727 -156 124 -467 434 -584
582 -740 930 -1008 2090 -751 3245 67 299 155 544 299 835 151 303 289 517
494 763 678 812 1660 1305 2721 1366 127 7 497 -4 625 -19z"/>
<path d="M38135 13808 c-890 -34 -1731 -404 -2376 -1048 -609 -608 -959 -1347
-1050 -2220 -16 -146 -16 -530 0 -680 88 -865 450 -1625 1062 -2231 552 -546
1236 -886 2024 -1005 166 -26 204 -28 500 -28 349 -1 449 8 735 64 1207 240
2230 1114 2665 2280 218 582 279 1235 174 1870 -218 1325 -1196 2442 -2489
2843 -395 123 -795 173 -1245 155z m500 -79 c951 -83 1833 -558 2439 -1314
613 -765 880 -1747 740 -2725 -87 -612 -338 -1195 -718 -1675 -90 -113 -188
-226 -192 -222 -2 2 3 25 12 52 8 28 25 102 37 165 19 100 22 149 21 370 0
220 -3 272 -22 380 -43 238 -103 433 -178 580 -87 170 -174 235 -327 248 l-82
7 -33 66 c-39 76 -59 187 -48 262 7 45 9 47 39 47 78 1 144 54 198 161 67 133
95 261 67 312 -7 15 -12 90 -13 222 -1 224 -10 269 -83 410 -103 199 -339 331
-627 351 -224 16 -544 -75 -674 -192 -131 -118 -232 -415 -203 -598 12 -76 53
-181 91 -235 18 -24 21 -44 21 -123 0 -224 57 -431 156 -571 44 -60 34 -81
-15 -34 -82 81 -246 154 -586 262 -99 31 -183 60 -187 63 -7 7 -51 396 -118
1032 -93 878 -153 1124 -345 1416 -143 215 -328 355 -550 416 -64 17 -109 22
-225 22 -222 1 -334 -36 -542 -180 -592 -411 -912 -966 -989 -1719 -15 -148
-15 -536 1 -705 10 -118 39 -309 58 -397 7 -29 6 -47 -4 -64 -50 -90 -69 -246
-69 -564 0 -562 67 -938 237 -1335 94 -219 211 -417 343 -580 77 -94 78 -94
-92 32 -197 147 -422 362 -595 568 -350 418 -621 974 -733 1504 -203 959 -20
1927 515 2726 235 350 572 694 916 935 690 484 1504 699 2359 624z m-1185
-946 c227 -45 419 -224 504 -469 37 -105 67 -264 50 -264 -9 0 -260 166 -341
226 -92 68 -127 76 -171 39 -18 -15 -32 -31 -32 -35 0 -23 -86 -188 -140 -268
-107 -161 -215 -256 -386 -341 -128 -63 -174 -119 -174 -211 0 -20 -3 -39 -6
-43 -4 -3 -29 19 -57 49 -83 91 -154 112 -206 60 -24 -24 -26 -33 -26 -109 1
-92 26 -189 78 -297 39 -79 130 -177 173 -186 23 -4 36 -15 48 -40 23 -50 21
-59 -29 -92 -86 -57 -188 -47 -282 26 -101 81 -143 148 -185 298 -20 70 -22
103 -22 294 0 195 3 227 27 342 52 247 136 463 247 633 77 118 225 261 326
312 181 94 385 120 604 76z m-1138 -540 c-124 -249 -204 -594 -220 -950 -41
-905 271 -1622 873 -2005 115 -73 210 -121 436 -223 434 -197 626 -307 838
-484 112 -92 258 -242 357 -365 69 -86 264 -372 264 -387 0 -5 -53 -9 -117 -9
-207 0 -1002 -20 -1178 -30 -93 -5 -262 -23 -375 -40 -113 -16 -221 -30 -240
-30 -33 1 -41 8 -122 113 -226 290 -393 555 -563 892 -187 372 -345 784 -419
1095 -64 265 -78 389 -83 738 -6 351 2 466 48 697 75 379 236 721 465 989 35
42 67 76 69 76 3 0 -12 -35 -33 -77z m1357 -57 c66 -46 171 -117 235 -157 69
-45 117 -82 120 -94 10 -39 45 -351 57 -500 6 -82 8 -183 4 -225 -25 -280
-125 -522 -283 -691 -135 -145 -271 -170 -467 -88 -220 91 -416 283 -514 502
-27 59 -33 67 -58 67 -89 0 -197 178 -226 372 -12 86 -5 116 29 110 25 -5 99
-77 132 -129 30 -48 32 -49 71 -28 33 17 61 78 61 134 0 63 32 98 146 155 217
110 371 269 489 509 63 129 73 147 80 147 3 0 59 -38 124 -84z m445 -135 c70
-216 102 -419 176 -1121 28 -261 62 -571 75 -689 14 -117 24 -216 21 -218 -2
-3 -60 7 -128 22 -266 56 -288 67 -335 162 -26 54 -28 66 -28 183 l0 125 48
69 c27 38 62 96 78 128 38 74 92 238 115 343 24 113 22 369 -5 595 -11 96 -30
249 -41 340 -11 91 -20 166 -20 168 0 1 2 2 4 2 3 0 21 -49 40 -109z m-1933
-826 c17 -137 47 -228 104 -320 22 -36 36 -78 49 -150 74 -401 249 -744 503
-986 165 -156 322 -250 673 -399 393 -167 596 -278 840 -458 128 -95 295 -253
404 -382 131 -154 127 -147 142 -272 7 -62 22 -183 33 -268 11 -85 19 -155 17
-157 -1 -1 -34 48 -73 110 -212 335 -416 564 -685 767 -193 146 -364 242 -708
395 -223 99 -318 147 -432 214 -530 313 -848 906 -887 1649 -7 136 -2 449 6
367 2 -16 8 -66 14 -110z m3847 105 c251 -64 414 -224 466 -457 16 -71 23
-304 10 -337 -4 -10 -18 -16 -38 -16 -54 0 -101 -19 -133 -52 -37 -39 -48 -64
-63 -149 -13 -72 -35 -123 -43 -99 -3 8 -8 35 -12 60 -11 85 -45 180 -77 216
-96 109 -357 162 -732 151 -205 -6 -249 -14 -295 -52 -16 -14 -31 -25 -34 -25
-10 0 -27 100 -27 154 0 123 97 370 176 449 85 84 265 150 499 181 60 8 227
-5 303 -24z m-3543 -600 c96 -47 174 -48 257 -3 50 27 58 28 62 14 15 -51 28
-241 23 -345 -6 -150 -26 -217 -77 -268 -40 -41 -69 -47 -94 -23 -24 24 -100
170 -141 268 -48 118 -126 404 -107 395 4 -2 39 -19 77 -38z m500 -148 c192
-186 443 -293 616 -262 71 13 102 27 172 76 l47 34 0 -63 c0 -146 62 -270 160
-319 30 -16 84 -34 120 -41 77 -15 81 -23 54 -129 -42 -174 -110 -305 -203
-390 -66 -62 -129 -95 -207 -109 -53 -10 -56 -9 -211 57 -214 91 -351 160
-461 234 -104 69 -243 197 -315 289 l-48 60 33 14 c40 17 92 74 114 125 40 96
57 318 35 470 -4 28 -7 52 -7 52 1 0 46 -44 101 -98z m2840 -25 c156 -31 246
-72 276 -128 19 -36 46 -142 54 -210 8 -74 17 -95 45 -104 58 -18 118 67 141
200 10 57 18 76 44 102 60 60 145 38 145 -37 0 -81 -83 -265 -141 -314 -36
-31 -96 -35 -134 -10 -20 13 -28 14 -40 4 -16 -13 -20 -42 -8 -54 4 -4 8 -62
8 -129 1 -108 4 -130 28 -191 15 -38 32 -76 39 -83 16 -20 7 -24 -69 -34 -154
-19 -454 -1 -409 25 115 66 325 227 350 269 11 18 0 47 -21 54 -6 2 -37 -19
-69 -48 -198 -173 -374 -271 -495 -272 -191 -1 -349 216 -389 536 -13 101 -10
410 3 423 16 17 117 22 337 19 149 -2 252 -8 305 -18z m-1183 -691 c303 -96
484 -174 541 -234 l27 -28 -54 -47 c-175 -151 -269 -440 -283 -866 l-6 -185
-41 50 c-22 27 -69 78 -103 114 -70 74 -70 74 -118 340 -34 189 -31 182 -63
178 -37 -4 -38 -24 -4 -206 l29 -152 -31 25 c-210 170 -375 280 -589 390
l-138 72 74 36 c155 77 276 256 333 492 15 61 28 115 30 122 4 14 141 -21 396
-101z m-2751 -446 c154 -434 377 -896 594 -1227 l73 -111 -56 -25 c-158 -71
-350 -138 -445 -156 l-48 -9 -24 55 c-39 87 -113 306 -140 414 -29 115 -58
296 -76 484 -18 173 -18 688 -1 775 22 113 23 113 54 10 16 -52 47 -147 69
-210z m3536 143 c65 -32 84 -37 142 -36 36 0 77 5 90 10 16 6 38 4 75 -8 119
-40 313 -49 521 -24 162 20 215 19 278 -5 57 -21 108 -68 152 -139 29 -48 98
-202 92 -208 -2 -2 -24 4 -48 13 -146 54 -321 -13 -389 -147 -32 -61 -34 -115
-15 -375 14 -185 16 -296 11 -489 -6 -245 -19 -421 -30 -433 -3 -3 -16 4 -29
16 -12 12 -56 37 -97 56 -74 34 -75 35 -47 45 45 17 94 59 111 96 23 48 21
120 -4 145 -25 25 -35 25 -77 -1 l-34 -21 -62 23 c-82 30 -149 28 -264 -9
-123 -40 -211 -91 -297 -173 -80 -76 -98 -85 -183 -94 -47 -6 -291 10 -300 19
-2 2 -19 128 -39 282 -33 248 -37 305 -38 514 -1 240 6 312 45 476 54 231 128
353 272 455 39 27 74 49 80 49 5 0 43 -17 84 -37z m1307 -478 c29 -14 61 -34
70 -44 45 -50 96 -342 103 -596 8 -267 -17 -458 -88 -682 l-30 -92 -92 -85
c-51 -47 -137 -121 -192 -165 l-100 -80 -17 40 c-17 39 -17 42 2 79 25 49 25
90 0 142 -17 36 -18 49 -10 112 14 104 30 396 30 548 0 73 -7 252 -16 398
l-17 265 23 53 c22 52 72 102 121 121 13 5 55 10 92 10 53 1 80 -5 121 -24z
m-693 -1070 c71 -25 93 -26 132 -10 13 5 17 2 17 -13 0 -32 -36 -68 -92 -93
-44 -20 -71 -24 -161 -24 -114 -2 -136 -10 -116 -46 6 -12 32 -21 81 -29 88
-15 228 -54 271 -77 108 -56 185 -164 161 -227 -9 -23 -20 -20 -64 15 -44 35
-83 37 -88 3 -2 -16 13 -34 61 -72 72 -56 96 -99 79 -138 l-12 -24 -34 38
c-42 46 -127 95 -159 90 -16 -2 -22 -10 -22 -27 0 -19 12 -32 55 -57 30 -18
66 -44 79 -58 24 -26 24 -26 5 -41 -51 -37 -59 -38 -101 -11 -22 15 -56 29
-76 33 -29 4 -36 2 -42 -16 -9 -28 0 -39 46 -58 21 -8 39 -19 39 -23 0 -5 -25
-22 -54 -39 l-55 -31 -122 31 c-134 33 -234 75 -349 147 -75 47 -75 47 -160
46 -72 -1 -101 -7 -185 -38 -440 -162 -1137 -292 -1752 -327 -285 -16 -500 8
-648 71 -85 37 -213 129 -318 229 -148 143 -261 293 -362 485 l-56 104 43 7
c65 11 258 77 393 135 l120 52 22 -29 c12 -15 77 -99 144 -185 l121 -158 59 0
c33 0 103 7 157 16 301 48 371 54 957 70 387 10 673 13 860 9 537 -14 510 -18
632 96 93 88 199 147 323 179 95 24 84 24 171 -5z m-535 -830 c111 -67 213
-110 314 -134 l75 -18 -60 -30 c-139 -71 -378 -162 -552 -211 l-71 -20 -21 92
c-24 107 -51 259 -51 291 0 19 11 27 73 49 149 52 176 50 293 -19z m-427 -112
c7 -43 23 -127 37 -188 13 -60 24 -115 24 -121 0 -13 -199 -54 -385 -80 -66
-9 -220 -18 -385 -21 -309 -6 -367 2 -580 71 -104 33 -314 125 -306 133 2 3
75 11 163 19 468 42 964 133 1333 243 36 11 70 20 76 20 6 1 16 -32 23 -76z
m-1704 -224 c11 -10 63 -41 115 -69 52 -28 82 -48 65 -44 -122 27 -445 119
-445 128 0 1 55 3 123 3 104 0 125 -2 142 -18z"/>
<path d="M37580 11830 c-43 -43 -10 -110 54 -110 59 0 88 68 46 110 -11 11
-33 20 -50 20 -17 0 -39 -9 -50 -20z"/>
<path d="M5830 5013 c-97 -17 -157 -56 -194 -122 -49 -91 -29 -208 46 -264 32
-24 119 -57 246 -93 70 -19 122 -59 122 -94 0 -122 -188 -147 -341 -45 l-52
36 -29 -33 c-53 -61 -53 -64 -6 -99 146 -107 378 -120 484 -27 58 51 77 99 72
184 -6 118 -55 164 -233 215 -123 35 -180 60 -189 84 -16 41 -6 83 25 109 26
22 40 26 98 26 58 0 79 -5 140 -36 40 -20 73 -34 75 -33 1 2 13 20 27 39 14
19 29 41 33 47 9 16 -69 67 -133 87 -51 16 -152 26 -191 19z"/>
<path d="M6692 5010 c-177 -38 -307 -187 -319 -368 -12 -176 72 -323 225 -395
63 -30 74 -32 182 -32 110 0 118 2 182 33 84 41 167 128 199 209 31 78 33 223
5 300 -40 106 -127 193 -233 233 -65 25 -176 34 -241 20z m169 -132 c87 -29
150 -101 175 -198 26 -101 -5 -210 -78 -276 -56 -50 -102 -67 -178 -67 -154
-1 -263 116 -263 280 0 158 108 271 259 273 28 0 66 -5 85 -12z"/>
<path d="M7692 5009 c-63 -12 -156 -66 -203 -116 -22 -24 -55 -74 -72 -111
-30 -62 -32 -75 -32 -172 0 -97 2 -110 32 -172 39 -83 108 -155 188 -193 50
-25 74 -30 156 -33 122 -5 197 17 283 84 l58 46 -45 46 -45 45 -49 -35 c-46
-35 -134 -68 -178 -68 -48 0 -124 32 -167 70 -61 54 -91 124 -91 215 0 116 50
202 145 249 93 46 202 31 297 -41 l34 -27 44 49 44 48 -21 22 c-32 34 -127 81
-188 94 -60 13 -127 13 -190 0z"/>
<path d="M8310 4615 l0 -395 65 0 65 0 0 395 0 395 -65 0 -65 0 0 -395z"/>
<path d="M8986 5001 c-11 -18 -336 -765 -336 -773 0 -4 31 -8 68 -8 l69 0 38
95 39 95 187 0 187 0 38 -95 39 -95 73 0 c41 0 72 4 70 9 -1 4 -79 182 -172
395 l-169 386 -63 0 c-34 0 -65 -4 -68 -9z m194 -463 c0 -4 -58 -8 -130 -8
-71 0 -130 3 -130 6 0 6 108 260 122 288 9 16 21 -7 74 -130 35 -81 64 -152
64 -156z"/>
<path d="M9657 5003 c-4 -3 -7 -181 -7 -395 l0 -388 275 0 275 0 0 65 0 65
-205 0 -205 0 0 330 0 330 -63 0 c-35 0 -67 -3 -70 -7z"/>
<path d="M37473 4846 c-189 -62 -310 -260 -274 -453 7 -37 24 -91 38 -120 33
-67 116 -146 190 -181 52 -24 69 -27 173 -27 109 0 118 2 181 32 301 148 301
585 1 726 -59 28 -79 32 -167 34 -64 2 -115 -2 -142 -11z m206 -122 c109 -32
183 -138 183 -262 0 -87 -29 -158 -84 -208 -56 -50 -102 -67 -179 -67 -112 0
-209 68 -244 172 -51 151 19 314 157 362 66 23 100 23 167 3z"/>
<path d="M35996 4603 c47 -137 106 -309 131 -383 25 -74 50 -141 56 -147 5 -8
32 -13 62 -13 l53 0 22 63 c12 34 53 153 91 265 38 112 72 209 76 217 5 8 40
-81 92 -233 117 -347 99 -314 167 -310 l57 3 28 80 c88 253 239 693 239 699 0
3 -31 6 -69 6 l-70 0 -94 -287 -93 -288 -95 287 -94 288 -61 0 -60 0 -93 -285
c-51 -157 -94 -285 -96 -285 -2 0 -8 15 -14 33 -5 17 -46 146 -91 285 l-81
252 -74 0 -74 0 85 -247z"/>
<path d="M38230 4460 l0 -390 70 0 70 0 2 271 3 272 118 -178 119 -178 121
183 122 183 3 -277 2 -276 70 0 70 0 0 390 0 391 -76 -3 -76 -3 -112 -174
c-62 -95 -116 -174 -122 -174 -5 0 -60 79 -123 176 l-114 177 -73 0 -74 0 0
-390z"/>
<path d="M39250 4460 l0 -390 295 0 295 0 0 60 0 60 -225 0 -225 0 0 105 0
105 195 0 195 0 0 65 0 65 -195 0 -195 0 0 100 0 100 220 0 220 0 0 60 0 60
-290 0 -290 0 0 -390z"/>
<path d="M40060 4460 l0 -390 65 0 65 0 2 276 3 276 214 -276 213 -276 59 0
59 0 0 390 0 390 -70 0 -70 0 -2 -265 -3 -265 -205 265 -205 265 -62 0 -63 0
0 -390z"/>
<path d="M20975 4668 c29 -84 91 -261 137 -393 l83 -240 57 -3 c69 -4 50 -37
168 310 46 136 85 246 87 245 1 -2 44 -126 96 -277 l94 -275 61 -3 c34 -2 62
-1 62 1 0 4 89 266 240 705 l29 82 -72 0 -73 0 -88 -277 c-49 -153 -92 -281
-95 -285 -4 -5 -49 121 -101 277 l-94 286 -60 -3 -59 -3 -90 -275 c-49 -151
-92 -278 -96 -282 -3 -4 -47 120 -97 275 l-90 282 -76 3 -75 3 52 -153z"/>
<path d="M22441 4778 c-10 -24 -85 -194 -166 -378 -81 -184 -149 -341 -152
-348 -4 -10 11 -12 67 -10 l72 3 38 90 38 90 185 3 184 2 39 -95 39 -95 73 0
c39 0 72 1 72 3 0 2 -76 176 -168 388 l-169 384 -66 3 -67 3 -19 -43z m154
-284 l63 -144 -134 0 -134 0 13 33 c79 187 122 278 125 268 2 -7 32 -77 67
-157z"/>
<path d="M22970 4755 l0 -65 120 0 120 0 0 -325 0 -325 70 0 70 0 0 325 0 325
125 0 125 0 0 65 0 65 -315 0 -315 0 0 -65z"/>
<path d="M23800 4430 l0 -390 295 0 295 0 0 60 0 60 -225 0 -225 0 0 105 0
105 195 0 195 0 0 60 0 60 -195 0 -195 0 0 105 0 105 220 0 220 0 0 60 0 60
-290 0 -290 0 0 -390z"/>
<path d="M24610 4430 l0 -390 65 0 65 0 0 135 0 135 88 0 88 0 94 -135 93
-135 79 0 c43 0 78 2 78 5 0 3 -45 69 -100 147 l-100 141 48 22 c90 43 132
112 132 218 0 80 -34 153 -89 191 -66 46 -126 56 -343 56 l-198 0 0 -390z
m382 259 c33 -7 62 -22 80 -39 24 -25 28 -36 28 -85 0 -49 -4 -60 -28 -85 -39
-39 -88 -50 -219 -50 l-113 0 0 128 c0 71 3 132 7 135 11 11 188 8 245 -4z"/>
<path d="M9287 3469 c-122 -29 -196 -127 -184 -245 11 -109 82 -168 252 -209
146 -35 193 -72 181 -140 -19 -99 -196 -109 -331 -19 l-54 35 -33 -37 c-55
-61 -55 -60 14 -104 87 -57 153 -75 268 -74 108 0 146 13 208 68 63 58 88 154
59 234 -27 73 -102 122 -248 161 -102 27 -130 39 -156 63 -32 30 -31 87 0 116
55 52 146 50 254 -4 36 -19 67 -33 68 -31 1 1 17 24 35 50 29 40 32 50 20 58
-116 77 -240 105 -353 78z"/>
<path d="M4010 3075 l0 -395 275 0 275 0 0 65 0 65 -205 0 -205 0 0 330 0 330
-70 0 -70 0 0 -395z"/>
<path d="M4760 3075 l0 -395 295 0 295 0 0 60 0 60 -225 0 -225 0 0 110 0 110
195 0 195 0 0 60 0 60 -195 0 -195 0 0 100 0 100 220 0 220 0 0 65 0 65 -290
0 -290 0 0 -395z"/>
<path d="M5681 3093 c-90 -208 -166 -386 -169 -396 -4 -16 2 -18 64 -15 l68 3
40 93 41 92 186 0 187 0 38 -95 39 -95 74 0 c54 0 72 3 68 13 -3 6 -80 184
-172 395 l-168 382 -66 0 -66 -1 -164 -376z m299 53 c33 -77 60 -143 60 -148
0 -4 -58 -8 -130 -8 -71 0 -130 3 -130 8 0 20 126 300 132 294 4 -4 35 -70 68
-146z"/>
<path d="M6510 3074 l0 -396 198 4 c158 3 207 8 247 22 121 44 218 142 251
255 25 85 16 211 -20 284 -55 113 -170 196 -302 217 -33 6 -130 10 -216 10
l-158 0 0 -396z m426 239 c52 -28 108 -90 125 -139 7 -22 13 -70 13 -109 0
-58 -5 -79 -29 -123 -30 -56 -83 -99 -144 -120 -19 -7 -83 -12 -142 -12 l-109
0 0 266 0 266 123 -4 c100 -3 129 -8 163 -25z"/>
<path d="M7450 3075 l0 -395 290 0 290 0 0 60 0 60 -222 2 -223 3 0 105 0 105
198 3 197 2 0 60 0 60 -200 0 -200 0 0 100 0 100 225 0 225 0 0 65 0 65 -290
0 -290 0 0 -395z"/>
<path d="M8255 3458 c-3 -7 -4 -184 -3 -393 l3 -380 67 -3 67 -3 3 138 3 138
85 0 84 0 89 -125 c48 -69 94 -131 101 -138 9 -9 36 -12 90 -10 l76 3 -104
145 -104 145 47 23 c123 61 173 210 111 332 -25 48 -66 85 -125 112 -46 21
-67 23 -267 26 -176 3 -219 1 -223 -10z m424 -134 c102 -41 102 -175 0 -226
-27 -14 -60 -18 -161 -18 l-128 0 0 130 0 130 125 0 c90 0 135 -4 164 -16z"/>
<path d="M9900 3075 l0 -395 65 0 65 0 0 165 0 165 190 0 190 0 0 -165 0 -165
70 0 70 0 -2 393 -3 392 -67 3 -68 3 0 -166 0 -165 -190 0 -190 0 0 165 0 165
-65 0 -65 0 0 -395z"/>
<path d="M10817 3463 c-4 -3 -7 -181 -7 -395 l0 -388 70 0 70 0 0 395 0 395
-63 0 c-35 0 -67 -3 -70 -7z"/>
<path d="M11220 3076 l0 -396 70 0 70 0 0 124 0 123 118 6 c236 11 343 94 344
269 1 79 -34 164 -82 198 -81 57 -112 64 -322 68 l-198 4 0 -396z m403 241
c59 -38 77 -118 43 -185 -27 -53 -81 -72 -203 -72 l-103 0 0 141 0 141 118 -3
c91 -3 124 -8 145 -22z"/>
<path d="M36303 3273 c-95 -214 -313 -718 -313 -725 0 -4 30 -8 68 -8 l67 0
39 95 40 95 185 0 186 0 39 -95 38 -95 69 0 c43 0 69 4 69 11 0 6 -56 140
-125 297 -69 158 -145 331 -168 384 l-42 98 -63 0 -63 0 -26 -57z m156 -270
c33 -78 61 -145 61 -148 0 -3 -58 -5 -130 -5 -71 0 -130 3 -130 8 0 18 126
300 131 294 4 -4 34 -71 68 -149z"/>
<path d="M39730 3321 c-139 -43 -211 -191 -150 -311 35 -68 85 -95 283 -151
96 -27 127 -53 127 -108 0 -112 -183 -131 -329 -35 l-54 36 -38 -43 c-21 -24
-38 -47 -39 -50 0 -4 15 -18 33 -31 130 -99 319 -126 444 -62 77 39 113 91
120 171 13 141 -44 201 -245 257 -119 34 -137 41 -162 66 -30 30 -27 90 6 121
23 21 35 24 103 24 68 0 85 -4 140 -33 34 -18 66 -30 71 -27 6 3 23 26 40 50
l30 44 -47 28 c-78 46 -140 62 -228 62 -44 0 -91 -4 -105 -8z"/>
<path d="M34500 2930 l0 -390 275 0 275 0 0 65 0 65 -205 0 -205 0 0 325 0
325 -70 0 -70 0 0 -390z"/>
<path d="M35250 2930 l0 -390 290 0 290 0 0 60 0 60 -222 2 -223 3 -3 102 -3
103 198 2 198 3 3 63 3 62 -201 0 -201 0 3 98 3 97 223 3 222 2 0 60 0 60
-290 0 -290 0 0 -390z"/>
<path d="M36990 2930 l0 -390 158 0 c87 0 185 5 218 11 130 24 234 101 290
214 27 55 29 69 29 170 0 101 -2 115 -28 165 -51 101 -130 168 -233 200 -56
17 -94 20 -250 20 l-184 0 0 -390z m405 246 c50 -21 100 -69 128 -121 32 -61
31 -184 -4 -250 -28 -56 -91 -109 -147 -125 -20 -5 -85 -10 -144 -10 l-108 0
0 266 0 266 118 -4 c80 -3 130 -10 157 -22z"/>
<path d="M37912 2933 l3 -388 293 -3 292 -2 0 60 0 60 -222 2 -223 3 -3 103
-3 102 196 0 195 0 0 65 0 65 -195 0 -195 0 0 100 0 100 220 0 220 0 0 60 0
60 -290 0 -290 0 2 -387z"/>
<path d="M38720 2930 l0 -391 68 3 67 3 3 138 3 138 82 -3 82 -3 98 -137 98
-138 80 0 c43 0 79 1 79 3 0 1 -47 68 -104 147 l-104 145 45 21 c93 45 136
114 135 218 0 78 -24 138 -73 180 -67 57 -114 66 -350 66 l-209 0 0 -390z
m437 244 c82 -60 76 -176 -12 -218 -25 -12 -65 -16 -159 -16 l-126 0 0 131 0
131 134 -4 c117 -3 138 -6 163 -24z"/>
<path d="M40350 2930 l0 -391 68 3 67 3 3 163 2 162 185 0 185 0 0 -165 0
-165 70 0 70 0 0 390 0 390 -70 0 -70 0 0 -160 0 -160 -185 0 -185 0 0 160 0
160 -70 0 -70 0 0 -390z"/>
<path d="M41260 2930 l0 -390 70 0 70 0 0 390 0 390 -70 0 -70 0 0 -390z"/>
<path d="M41660 2930 l0 -390 70 0 70 0 0 124 0 123 124 5 c106 5 132 10 185
33 102 46 153 122 155 230 1 83 -25 145 -81 195 -69 61 -114 70 -335 70 l-188
0 0 -390z m397 247 c47 -25 67 -61 67 -118 0 -58 -23 -95 -75 -121 -26 -14
-59 -18 -141 -18 l-108 0 0 141 0 141 113 -4 c81 -3 121 -9 144 -21z"/>
<path d="M18504 3291 c-108 -27 -199 -102 -250 -206 -103 -209 -21 -457 185
-554 50 -23 68 -26 171 -26 110 0 119 2 180 32 36 17 80 47 97 65 l33 34 -44
43 -43 42 -29 -24 c-94 -79 -215 -95 -312 -43 -225 124 -164 486 89 521 63 9
144 -15 203 -60 l45 -34 41 46 c22 25 40 49 40 54 0 14 -65 62 -120 88 -46 21
-72 26 -155 28 -55 1 -114 -2 -131 -6z"/>
<path d="M19355 3287 c-102 -34 -174 -88 -223 -165 -49 -78 -65 -141 -60 -247
3 -79 8 -101 36 -157 39 -79 111 -149 190 -186 45 -20 77 -27 148 -30 168 -8
290 49 369 173 46 73 65 137 65 225 0 166 -81 296 -230 367 -46 22 -72 27
-155 30 -65 2 -114 -2 -140 -10z m196 -123 c78 -23 151 -98 174 -178 40 -136
-11 -268 -126 -331 -45 -24 -66 -29 -124 -29 -60 0 -79 4 -125 30 -96 54 -147
153 -137 270 11 141 119 247 258 253 14 1 50 -6 80 -15z"/>
<path d="M21189 3287 c-112 -42 -164 -111 -164 -217 0 -115 63 -179 217 -219
168 -44 218 -73 218 -128 0 -117 -193 -138 -338 -38 l-51 34 -41 -49 -41 -49
33 -24 c92 -69 201 -102 316 -95 121 7 204 55 240 138 22 50 19 151 -5 192
-25 44 -102 94 -172 114 -153 42 -190 55 -214 78 -36 34 -37 84 -1 119 51 51
147 48 250 -7 l64 -34 37 50 c36 49 36 51 17 65 -10 9 -48 29 -83 46 -53 25
-78 31 -155 34 -61 2 -103 -1 -127 -10z"/>
<path d="M24495 3248 c-77 -171 -315 -722 -315 -729 0 -5 30 -9 68 -9 l67 0
39 95 40 95 185 -2 185 -3 39 -92 39 -93 73 0 73 0 -172 393 -172 392 -62 3
-63 3 -24 -53z m155 -282 c33 -77 60 -141 60 -143 0 -2 -58 -3 -130 -3 -71 0
-130 3 -130 7 0 21 125 292 131 286 5 -5 36 -71 69 -147z"/>
<path d="M26515 3287 c-136 -45 -233 -150 -271 -292 -49 -182 42 -376 216
-459 61 -29 72 -31 180 -31 104 0 121 3 173 27 308 145 313 586 7 732 -57 27
-77 31 -165 33 -63 2 -115 -2 -140 -10z m228 -131 c47 -19 94 -62 124 -114 39
-65 45 -186 13 -260 -91 -212 -385 -210 -481 2 -28 62 -26 177 5 241 61 129
209 186 339 131z"/>
<path d="M20110 2900 l0 -390 65 0 65 0 2 275 3 274 213 -274 212 -275 60 0
60 0 0 390 0 390 -70 0 -70 0 -2 -266 -3 -266 -205 266 -205 265 -62 1 -63 0
0 -390z"/>
<path d="M21810 2900 l0 -390 295 0 295 0 0 60 0 60 -225 0 -225 0 0 105 0
105 195 0 195 0 0 60 0 60 -192 2 -193 3 -3 103 -3 102 221 0 220 0 0 60 0 60
-290 0 -290 0 0 -390z"/>
<path d="M22620 2900 l0 -390 65 0 65 0 0 135 0 135 89 0 88 0 94 -135 94
-134 84 -1 c65 0 81 3 74 13 -55 71 -193 269 -193 276 0 5 14 15 32 22 18 7
47 26 66 43 107 94 101 286 -11 367 -70 51 -119 59 -344 59 l-203 0 0 -390z
m438 240 c66 -41 77 -136 22 -192 -38 -37 -93 -49 -217 -46 l-108 3 -3 128 -3
127 138 0 c121 0 142 -3 171 -20z"/>
<path d="M23450 3148 c32 -79 105 -255 162 -393 l103 -250 61 -3 60 -3 158
383 c87 211 160 389 163 396 4 9 -14 12 -70 12 l-74 0 -114 -291 c-62 -159
-116 -292 -119 -294 -3 -2 -58 128 -121 288 l-115 292 -76 3 -77 3 59 -143z"/>
<path d="M25020 3225 l0 -65 125 0 125 0 0 -325 0 -325 70 0 70 0 0 325 0 325
120 0 120 0 0 65 0 65 -315 0 -315 0 0 -65z"/>
<path d="M25860 2900 l0 -390 70 0 70 0 0 390 0 390 -70 0 -70 0 0 -390z"/>
<path d="M27270 2900 l0 -390 70 0 70 0 2 271 3 271 210 -271 210 -271 58 0
57 0 0 390 0 390 -65 0 -65 0 0 -266 c0 -169 -4 -263 -10 -259 -5 3 -100 123
-210 265 l-201 260 -65 0 -64 0 0 -390z"/>
</g>
</svg>
